id,first_name,last_name,email,country,ip_address,Currency,Amount
1,Alice,Jordan,ajordan0@people.com.cn,Ivory Coast,228.196.196.69,Franc,$9285.57
2,Kathy,Campbell,kcampbell1@skyrock.com,Chile,134.127.15.8,Peso,$15483.55
3,Stephanie,Butler,sbutler2@furl.net,United States,51.253.202.209,Dollar,$15205.30
4,Karen,Hayes,khayes3@shinystat.com,Greece,124.128.152.249,Euro,$651.63
5,Virginia,Nelson,vnelson4@instagram.com,China,143.250.181.47,Yuan Renminbi,$14884.88
6,Nicole,Gutierrez,ngutierrez5@va.gov,Indonesia,90.45.170.140,Rupiah,$24435.33
7,Jacqueline,Mcdonald,jmcdonald6@taobao.com,Portugal,14.120.128.9,Euro,$12729.20
8,Irene,Duncan,iduncan7@alexa.com,Indonesia,99.110.149.82,Rupiah,$819.56
9,Helen,Garza,hgarza8@vistaprint.com,Canada,69.133.27.25,Dollar,$18093.73
10,Benjamin,Campbell,bcampbell9@constantcontact.com,Slovenia,58.62.160.240,Euro,$12570.55
11,Doris,Day,ddaya@rakuten.co.jp,China,131.115.236.175,Yuan Renminbi,$11593.47
12,Ernest,Harrison,eharrisonb@ifeng.com,Bosnia and Herzegovina,162.56.211.143,Marka,$4706.95
13,Ralph,Thomas,rthomasc@va.gov,Chile,137.151.45.184,Peso,$1872.55
14,Lisa,Gonzalez,lgonzalezd@trellian.com,Pakistan,21.229.55.250,Rupee,$11931.85
15,Louise,Greene,lgreenee@smugmug.com,China,19.15.254.107,Yuan Renminbi,$22630.53
16,Joseph,Dean,jdeanf@house.gov,China,66.53.47.110,Yuan Renminbi,$24068.87
17,Antonio,Schmidt,aschmidtg@blog.com,Yemen,28.194.10.74,Rial,$4007.58
18,Catherine,Ryan,cryanh@flavors.me,Pakistan,73.174.179.179,Rupee,$9666.78
19,Daniel,Snyder,dsnyderi@fotki.com,China,168.96.135.233,Yuan Renminbi,$1635.70
20,Sara,Sullivan,ssullivanj@bloomberg.com,Myanmar,168.181.245.31,Kyat,$396.97
21,Amy,Watkins,awatkinsk@gravatar.com,China,200.54.104.252,Yuan Renminbi,$3823.26
22,Richard,Lawson,rlawsonl@ox.ac.uk,Pakistan,7.155.120.218,Rupee,$964.23
23,Mary,Walker,mwalkerm@cpanel.net,Colombia,3.7.102.169,Peso,$8927.44
24,Catherine,Hernandez,chernandezn@symantec.com,Chad,33.80.91.206,Franc,$23537.37
25,Ralph,Pierce,rpierceo@booking.com,Russia,163.141.109.121,Ruble,$5779.91
26,Carl,Mitchell,cmitchellp@wikipedia.org,Peru,205.184.99.89,Sol,$9498.66
27,Martin,Nguyen,mnguyenq@printfriendly.com,Dominican Republic,205.138.7.15,Peso,$11601.10
28,Jonathan,Cook,jcookr@wikimedia.org,Russia,95.53.186.83,Ruble,$11364.53
29,Keith,Campbell,kcampbells@sitemeter.com,United Kingdom,137.225.169.136,Pound,$19421.60
30,Norma,Henry,nhenryt@ow.ly,Tajikistan,9.20.0.102,Somoni,$12898.91
31,Doris,Garrett,dgarrettu@wsj.com,Ukraine,224.192.39.111,Hryvnia,$2256.01
32,Margaret,Hayes,mhayesv@buzzfeed.com,Norway,252.109.167.250,Krone,$15924.99
33,Brandon,Martinez,bmartinezw@unesco.org,Russia,49.35.145.173,Ruble,$11737.78
34,Susan,Ward,swardx@wikia.com,Indonesia,106.67.167.160,Rupiah,$9950.96
35,Nicole,Smith,nsmithy@stumbleupon.com,Hungary,103.217.8.98,Forint,$12674.48
36,Emily,Burns,eburnsz@addtoany.com,Democratic Republic of the Congo,53.153.80.214,Franc,$7783.78
37,Marie,Gardner,mgardner10@tripadvisor.com,Bosnia and Herzegovina,233.130.61.9,Marka,$3389.01
38,Karen,Lawson,klawson11@hao123.com,Honduras,147.106.33.164,Lempira,$20161.50
39,Joshua,Hanson,jhanson12@tripadvisor.com,Vietnam,186.83.229.162,Dong,$11149.92
40,Sarah,Nguyen,snguyen13@example.com,Indonesia,103.73.10.130,Rupiah,$415.28
41,Albert,Mendoza,amendoza14@cnbc.com,China,249.19.106.139,Yuan Renminbi,$1241.54
42,Michelle,Dixon,mdixon15@usnews.com,Syria,50.181.44.48,Pound,$508.64
43,Elizabeth,Gordon,egordon16@pinterest.com,Nigeria,162.166.197.251,Naira,$7376.69
44,Laura,Myers,lmyers17@indiatimes.com,China,215.12.134.113,Yuan Renminbi,$20841.51
45,Betty,Johnson,bjohnson18@webmd.com,Argentina,163.151.76.171,Peso,$12164.33
46,Juan,Jackson,jjackson19@vistaprint.com,Macedonia,19.64.9.32,Denar,$17036.14
47,Paula,Thomas,pthomas1a@mysql.com,Russia,61.194.54.233,Ruble,$4165.56
48,Elizabeth,Simpson,esimpson1b@geocities.com,Philippines,158.130.181.83,Peso,$1281.75
49,Deborah,Henderson,dhenderson1c@godaddy.com,Kazakhstan,141.79.184.187,Tenge,$614.94
50,Debra,Hayes,dhayes1d@prnewswire.com,Poland,234.221.168.30,Zloty,$20723.72
51,Joyce,Grant,jgrant1e@people.com.cn,France,141.51.200.151,Euro,$15745.60
52,Howard,Mitchell,hmitchell1f@biglobe.ne.jp,Indonesia,220.161.170.34,Rupiah,$4000.67
53,Norma,Robinson,nrobinson1g@google.co.jp,China,131.229.131.54,Yuan Renminbi,$9970.76
54,Carlos,Welch,cwelch1h@symantec.com,Hong Kong,115.229.176.105,Dollar,$8901.44
55,Janice,Jackson,jjackson1i@deliciousdays.com,China,95.187.78.10,Yuan Renminbi,$21698.19
56,Evelyn,Rose,erose1j@springer.com,Brazil,9.173.80.167,Real,$5718.39
57,Heather,Reid,hreid1k@globo.com,Philippines,247.67.43.176,Peso,$2876.12
58,Johnny,Miller,jmiller1l@bigcartel.com,Poland,6.39.123.189,Zloty,$5860.82
59,Steven,Perkins,sperkins1m@latimes.com,Guatemala,124.67.97.247,Quetzal,$2262.45
60,Gregory,Alvarez,galvarez1n@comsenz.com,Indonesia,232.198.249.78,Rupiah,$20915.78
61,Sarah,Ryan,sryan1o@yale.edu,China,147.124.167.225,Yuan Renminbi,$16923.84
62,Joe,Patterson,jpatterson1p@spiegel.de,Portugal,193.57.16.239,Euro,$11937.87
63,Annie,Rodriguez,arodriguez1q@rambler.ru,Venezuela,211.101.68.32,Bolivar,$2738.54
64,Brian,Russell,brussell1r@netvibes.com,Tajikistan,210.70.104.106,Somoni,$18698.22
65,Lisa,Wilson,lwilson1s@indiegogo.com,Portugal,37.180.234.40,Euro,$23230.80
66,Joyce,Hughes,jhughes1t@hibu.com,Peru,161.200.163.251,Sol,$1173.58
67,Kevin,Greene,kgreene1u@issuu.com,Chile,38.255.184.180,Peso,$14447.94
68,Karen,Nichols,knichols1v@cloudflare.com,Philippines,65.147.182.201,Peso,$2301.65
69,Douglas,Johnson,djohnson1w@mtv.com,Russia,192.236.211.247,Ruble,$23073.38
70,Michael,Robinson,mrobinson1x@washington.edu,Portugal,114.112.22.131,Euro,$7522.36
71,Carlos,Powell,cpowell1y@army.mil,Syria,252.246.111.101,Pound,$14896.98
72,Norma,Bennett,nbennett1z@ovh.net,France,64.59.108.30,Euro,$4077.29
73,Clarence,Robinson,crobinson20@admin.ch,Palestinian Territory,201.44.185.160,Shekel,$12842.95
74,John,Thomas,jthomas21@studiopress.com,Philippines,174.42.7.193,Peso,$11157.37
75,Carolyn,Lynch,clynch22@reuters.com,Nigeria,1.235.130.177,Naira,$24095.90
76,Todd,Moreno,tmoreno23@dot.gov,China,199.249.240.208,Yuan Renminbi,$6895.69
77,Katherine,Cox,kcox24@uol.com.br,Japan,60.183.170.166,Yen,$1660.69
78,Emily,Rodriguez,erodriguez25@bluehost.com,Norway,190.81.22.31,Krone,$18114.59
79,Joshua,Bowman,jbowman26@jalbum.net,Malaysia,5.87.176.218,Ringgit,$23136.09
80,Barbara,Meyer,bmeyer27@hao123.com,Botswana,32.248.244.70,Pula,$10112.76
81,Teresa,Schmidt,tschmidt28@howstuffworks.com,China,109.93.170.146,Yuan Renminbi,$8803.46
82,Benjamin,Schmidt,bschmidt29@ocn.ne.jp,France,156.237.181.246,Euro,$11419.37
83,Katherine,Foster,kfoster2a@prlog.org,China,246.25.19.254,Yuan Renminbi,$2415.77
84,Marilyn,Stewart,mstewart2b@myspace.com,Thailand,124.48.172.207,Baht,$18881.10
85,James,Knight,jknight2c@trellian.com,Peru,159.64.96.202,Sol,$156.11
86,Billy,Johnston,bjohnston2d@cbsnews.com,China,244.84.34.22,Yuan Renminbi,$22545.72
87,Kevin,Wallace,kwallace2e@rambler.ru,Finland,211.209.101.200,Euro,$18000.04
88,Dennis,Snyder,dsnyder2f@dmoz.org,Vietnam,228.9.251.135,Dong,$15558.12
89,Phyllis,Meyer,pmeyer2g@europa.eu,Philippines,96.52.253.32,Peso,$7508.87
90,Benjamin,Miller,bmiller2h@surveymonkey.com,Indonesia,7.191.81.239,Rupiah,$7236.95
91,Phyllis,Franklin,pfranklin2i@usa.gov,Indonesia,23.102.104.7,Rupiah,$4152.07
92,Stephanie,Flores,sflores2j@phoca.cz,Peru,255.238.85.113,Sol,$8713.08
93,Ann,Olson,aolson2k@topsy.com,Indonesia,164.78.20.255,Rupiah,$22884.26
94,James,Oliver,joliver2l@prweb.com,Indonesia,45.35.62.90,Rupiah,$11739.96
95,Tammy,Collins,tcollins2m@dyndns.org,Bulgaria,119.249.57.138,Lev,$13475.05
96,Timothy,Berry,tberry2n@marriott.com,Ukraine,252.227.115.103,Hryvnia,$6593.46
97,Lisa,Cruz,lcruz2o@indiegogo.com,Japan,152.153.59.200,Yen,$15619.65
98,Douglas,Lopez,dlopez2p@ustream.tv,Brazil,197.184.80.65,Real,$18350.81
99,Doris,West,dwest2q@senate.gov,China,114.243.168.215,Yuan Renminbi,$17729.21
100,Louis,Mitchell,lmitchell2r@reference.com,China,157.102.203.153,Yuan Renminbi,$18670.70
101,Linda,Thomas,lthomas2s@nih.gov,Brazil,62.117.76.255,Real,$17925.75
102,Shirley,Hunt,shunt2t@domainmarket.com,Brazil,231.197.177.39,Real,$16249.00
103,Ralph,Foster,rfoster2u@example.com,Indonesia,98.245.80.213,Rupiah,$16816.33
104,Marie,Stewart,mstewart2v@examiner.com,Syria,158.226.242.85,Pound,$14097.36
105,Henry,Richardson,hrichardson2w@wunderground.com,Portugal,187.150.51.39,Euro,$9868.71
106,Terry,Gonzales,tgonzales2x@stanford.edu,Brazil,152.77.239.131,Real,$14367.88
107,Phillip,Peterson,ppeterson2y@cbsnews.com,Sweden,185.207.83.246,Krona,$8217.18
108,Jose,Garcia,jgarcia2z@hibu.com,China,163.241.189.206,Yuan Renminbi,$17674.78
109,Diane,Harvey,dharvey30@rakuten.co.jp,Czech Republic,81.17.155.160,Koruna,$20766.95
110,Edward,Franklin,efranklin31@shutterfly.com,China,106.238.51.220,Yuan Renminbi,$18332.67
111,Jeffrey,Olson,jolson32@discuz.net,Indonesia,78.34.53.163,Rupiah,$22669.51
112,Brenda,Green,bgreen33@taobao.com,Brazil,157.87.17.96,Real,$2997.36
113,Sean,Warren,swarren34@tmall.com,Indonesia,192.231.187.211,Rupiah,$24690.04
114,Nancy,Gomez,ngomez35@foxnews.com,China,64.84.141.45,Yuan Renminbi,$18357.18
115,Martin,Evans,mevans36@behance.net,Syria,210.244.244.170,Pound,$9494.19
116,Nicholas,Robertson,nrobertson37@auda.org.au,Guatemala,112.20.39.206,Quetzal,$9996.66
117,Andrew,Dean,adean38@dedecms.com,Indonesia,63.175.169.7,Rupiah,$19746.81
118,Jerry,Rodriguez,jrodriguez39@vimeo.com,Canada,32.54.151.187,Dollar,$3868.26
119,Justin,Porter,jporter3a@si.edu,Georgia,63.170.254.177,Lari,$21112.28
120,Judy,Stone,jstone3b@mediafire.com,Japan,28.30.113.180,Yen,$14636.66
121,Scott,Walker,swalker3c@dion.ne.jp,China,242.112.190.42,Yuan Renminbi,$3472.43
122,Johnny,Gutierrez,jgutierrez3d@cpanel.net,Colombia,161.102.74.152,Peso,$641.47
123,Thomas,Robertson,trobertson3e@cornell.edu,Philippines,181.207.205.123,Peso,$24553.65
124,Christina,Castillo,ccastillo3f@merriam-webster.com,Colombia,194.26.47.77,Peso,$10497.22
125,Anthony,Snyder,asnyder3g@cyberchimps.com,Indonesia,84.187.205.243,Rupiah,$1689.61
126,Ernest,Olson,eolson3h@earthlink.net,China,13.207.244.47,Yuan Renminbi,$7445.21
127,Robin,Lawson,rlawson3i@e-recht24.de,Zimbabwe,210.123.204.127,Dollar,$13609.29
128,Marie,Harper,mharper3j@ebay.com,Uzbekistan,242.218.53.60,Som,$22642.97
129,Janice,Wagner,jwagner3k@g.co,Greece,185.140.195.249,Euro,$24771.43
130,Phyllis,Foster,pfoster3l@themeforest.net,Ukraine,83.62.160.167,Hryvnia,$2372.23
131,Louis,Wallace,lwallace3m@netscape.com,China,192.186.214.3,Yuan Renminbi,$17859.32
132,Doris,Long,dlong3n@irs.gov,Tajikistan,178.197.29.156,Somoni,$9895.11
133,Jane,James,jjames3o@taobao.com,Indonesia,133.211.60.24,Rupiah,$4502.65
134,Juan,Kelley,jkelley3p@nymag.com,China,36.174.235.244,Yuan Renminbi,$5012.68
135,Kelly,Hudson,khudson3q@networksolutions.com,Ireland,159.164.135.64,Euro,$21474.00
136,Earl,Porter,eporter3r@domainmarket.com,Guatemala,27.44.134.144,Quetzal,$22944.27
137,Lisa,Barnes,lbarnes3s@psu.edu,Philippines,160.5.255.185,Peso,$19780.67
138,Deborah,Henderson,dhenderson3t@xrea.com,Greece,70.26.157.62,Euro,$2242.31
139,Virginia,Gardner,vgardner3u@naver.com,Indonesia,228.83.135.64,Rupiah,$7945.72
140,Kimberly,Pierce,kpierce3v@toplist.cz,Russia,119.85.213.233,Ruble,$18972.78
141,Irene,Myers,imyers3w@bravesites.com,Russia,175.81.233.60,Ruble,$8025.08
142,Lawrence,Phillips,lphillips3x@simplemachines.org,Benin,96.17.187.64,Franc,$16292.20
143,Albert,Matthews,amatthews3y@shareasale.com,Afghanistan,44.57.217.172,Afghani,$15554.25
144,Todd,Mason,tmason3z@unicef.org,Russia,30.10.217.206,Ruble,$21599.90
145,Amanda,Thomas,athomas40@free.fr,Sweden,26.121.161.221,Krona,$22212.31
146,Donna,Nguyen,dnguyen41@bloglines.com,United States,89.1.184.111,Dollar,$19701.44
147,Irene,Foster,ifoster42@yellowbook.com,Portugal,215.3.85.61,Euro,$6143.24
148,Martha,Long,mlong43@fema.gov,Argentina,161.82.186.32,Peso,$19502.57
149,Anna,Gonzalez,agonzalez44@prnewswire.com,China,157.203.128.210,Yuan Renminbi,$10760.83
150,Eugene,Smith,esmith45@wordpress.org,Czech Republic,210.215.6.112,Koruna,$8343.85
151,Jesse,Martinez,jmartinez46@youku.com,Brazil,251.46.118.255,Real,$9734.85
152,Jennifer,Edwards,jedwards47@ycombinator.com,Philippines,92.200.224.25,Peso,$3775.42
153,Randy,Ward,rward48@epa.gov,Indonesia,179.121.128.222,Rupiah,$45.39
154,Amanda,Ray,aray49@squarespace.com,Serbia,235.179.252.211,Dinar,$20249.94
155,Martin,Moreno,mmoreno4a@wix.com,Portugal,98.231.254.240,Euro,$10734.27
156,Jimmy,Murphy,jmurphy4b@noaa.gov,Norway,22.101.241.205,Krone,$18668.96
157,Louis,Ruiz,lruiz4c@behance.net,China,8.200.148.24,Yuan Renminbi,$18905.15
158,Benjamin,Mason,bmason4d@so-net.ne.jp,China,220.2.41.230,Yuan Renminbi,$5206.31
159,Stephanie,Rodriguez,srodriguez4e@hatena.ne.jp,Mexico,125.137.170.26,Peso,$1050.92
160,Virginia,Gray,vgray4f@abc.net.au,Indonesia,208.62.14.75,Rupiah,$12104.73
161,Martha,Meyer,mmeyer4g@wordpress.org,China,61.9.203.106,Yuan Renminbi,$1638.78
162,Martin,Franklin,mfranklin4h@jugem.jp,Nigeria,74.193.132.196,Naira,$20740.01
163,Nicholas,Gray,ngray4i@guardian.co.uk,Sweden,9.150.188.81,Krona,$12701.94
164,Louis,Gibson,lgibson4j@businessinsider.com,China,167.68.132.23,Yuan Renminbi,$16029.94
165,Kathleen,Bishop,kbishop4k@lycos.com,Albania,58.82.60.200,Lek,$6076.59
166,Aaron,Green,agreen4l@yellowbook.com,China,71.246.58.225,Yuan Renminbi,$22610.45
167,Ann,Hernandez,ahernandez4m@wikispaces.com,France,37.119.235.210,Euro,$1503.76
168,Amy,Reed,areed4n@ow.ly,Palestinian Territory,217.210.66.140,Shekel,$24986.23
169,Angela,Jones,ajones4o@imageshack.us,China,112.224.92.108,Yuan Renminbi,$8653.72
170,Lori,Jones,ljones4p@ezinearticles.com,Indonesia,118.209.253.162,Rupiah,$6026.97
171,Ronald,Howard,rhoward4q@patch.com,Indonesia,126.221.43.64,Rupiah,$7547.81
172,Victor,Gray,vgray4r@globo.com,Iran,108.8.173.121,Rial,$17766.53
173,Laura,Howard,lhoward4s@bbc.co.uk,China,40.126.189.157,Yuan Renminbi,$18550.31
174,Donna,Stephens,dstephens4t@soundcloud.com,Czech Republic,133.118.160.72,Koruna,$12316.13
175,Christine,Wright,cwright4u@bluehost.com,Serbia,25.0.22.220,Dinar,$1864.75
176,Frances,Elliott,felliott4v@edublogs.org,China,41.44.163.221,Yuan Renminbi,$12525.34
177,Donald,Lawrence,dlawrence4w@tripadvisor.com,Russia,146.108.99.17,Ruble,$15473.20
178,Thomas,Alvarez,talvarez4x@miitbeian.gov.cn,Indonesia,212.185.67.36,Rupiah,$17264.07
179,Antonio,Torres,atorres4y@myspace.com,China,42.56.174.149,Yuan Renminbi,$2395.17
180,Donald,Larson,dlarson4z@arstechnica.com,Honduras,55.1.182.60,Lempira,$6258.00
181,Jane,Flores,jflores50@gov.uk,Indonesia,104.125.248.70,Rupiah,$7956.10
182,Anne,Price,aprice51@statcounter.com,Russia,186.184.111.78,Ruble,$12979.66
183,Joan,Lawrence,jlawrence52@statcounter.com,Kenya,173.121.134.198,Shilling,$22045.08
184,Susan,Sanchez,ssanchez53@nps.gov,Portugal,69.74.126.30,Euro,$18540.25
185,Irene,Kennedy,ikennedy54@yahoo.com,Philippines,87.245.42.127,Peso,$6900.20
186,Albert,Lee,alee55@about.me,China,83.164.159.204,Yuan Renminbi,$5927.28
187,Edward,Reynolds,ereynolds56@home.pl,Philippines,6.84.69.200,Peso,$16971.81
188,Alice,Knight,aknight57@gizmodo.com,Poland,156.138.138.188,Zloty,$22140.36
189,Jesse,Nelson,jnelson58@fema.gov,Pakistan,70.240.209.157,Rupee,$22335.60
190,Evelyn,Thompson,ethompson59@bloglovin.com,Czech Republic,44.78.207.52,Koruna,$23759.55
191,Shirley,Hart,shart5a@home.pl,Indonesia,164.11.225.209,Rupiah,$9297.03
192,Julia,Parker,jparker5b@ycombinator.com,Hungary,97.36.206.127,Forint,$5271.59
193,Julia,Green,jgreen5c@hatena.ne.jp,China,159.111.0.143,Yuan Renminbi,$3244.30
194,Adam,Welch,awelch5d@mapy.cz,China,89.171.83.148,Yuan Renminbi,$19603.63
195,Johnny,Coleman,jcoleman5e@twitpic.com,Russia,21.184.114.190,Ruble,$15593.07
196,Gregory,Greene,ggreene5f@wikispaces.com,Indonesia,80.174.167.226,Rupiah,$23639.84
197,Kevin,Richardson,krichardson5g@furl.net,China,16.152.222.203,Yuan Renminbi,$11292.71
198,Stephen,Cole,scole5h@topsy.com,China,1.47.166.145,Yuan Renminbi,$9166.73
199,Joe,Frazier,jfrazier5i@feedburner.com,France,14.145.50.197,Euro,$5061.63
200,Denise,Kelly,dkelly5j@newsvine.com,Serbia,37.172.137.205,Dinar,$6808.05
201,Todd,Long,tlong5k@163.com,Brazil,203.112.32.183,Real,$3449.60
202,George,Cook,gcook5l@google.es,Russia,2.42.166.194,Ruble,$13202.71
203,Richard,Morgan,rmorgan5m@ted.com,Colombia,123.227.31.248,Peso,$511.53
204,Gloria,Bradley,gbradley5n@pagesperso-orange.fr,South Korea,56.82.245.100,Won,$7988.68
205,Joe,Kennedy,jkennedy5o@weather.com,Russia,178.72.47.60,Ruble,$7627.58
206,Teresa,Reynolds,treynolds5p@fc2.com,Indonesia,255.105.122.240,Rupiah,$16556.82
207,Bonnie,Lopez,blopez5q@cargocollective.com,Costa Rica,86.45.184.78,Colon,$22084.58
208,Melissa,Weaver,mweaver5r@cbc.ca,South Africa,131.129.186.120,Rand,$11436.16
209,Louise,Bailey,lbailey5s@histats.com,Malaysia,43.155.254.89,Ringgit,$18548.12
210,Kimberly,Ellis,kellis5t@un.org,Pakistan,3.218.225.252,Rupee,$16502.34
211,Matthew,Greene,mgreene5u@topsy.com,China,67.59.200.75,Yuan Renminbi,$8142.22
212,Susan,Sanders,ssanders5v@hc360.com,Sweden,31.159.170.105,Krona,$13030.23
213,Stephen,Fox,sfox5w@google.com.hk,North Korea,198.44.180.156,Won,$7857.63
214,Heather,Meyer,hmeyer5x@google.ca,China,10.13.180.122,Yuan Renminbi,$11881.19
215,Rachel,Berry,rberry5y@canalblog.com,Thailand,48.119.65.1,Baht,$4392.60
216,Joe,Grant,jgrant5z@wisc.edu,Indonesia,89.16.251.98,Rupiah,$18435.91
217,Sara,Romero,sromero60@gnu.org,France,110.248.120.138,Euro,$12921.75
218,Nancy,Nichols,nnichols61@youtu.be,China,189.128.180.138,Yuan Renminbi,$21170.77
219,Ann,Turner,aturner62@twitpic.com,Brazil,41.168.215.122,Real,$4002.58
220,Richard,Russell,rrussell63@oakley.com,Syria,43.137.98.162,Pound,$17655.81
221,Sean,Cox,scox64@state.gov,China,117.248.15.13,Yuan Renminbi,$6049.52
222,Gerald,Gonzales,ggonzales65@diigo.com,China,231.45.166.34,Yuan Renminbi,$12087.28
223,Craig,Knight,cknight66@seattletimes.com,Libya,86.166.128.234,Dinar,$6042.48
224,Ernest,Burke,eburke67@ebay.com,Italy,119.36.25.59,Euro,$19959.02
225,Martin,Garcia,mgarcia68@japanpost.jp,Mozambique,63.83.219.20,Metical,$16934.41
226,Charles,Castillo,ccastillo69@cargocollective.com,China,159.168.237.176,Yuan Renminbi,$16767.88
227,Nancy,Jones,njones6a@imgur.com,Portugal,243.29.92.189,Euro,$12035.86
228,Patrick,Perkins,pperkins6b@vk.com,Russia,196.9.252.197,Ruble,$3286.36
229,Andrew,Frazier,afrazier6c@google.pl,China,190.237.3.239,Yuan Renminbi,$19079.06
230,Jack,Carpenter,jcarpenter6d@patch.com,Russia,150.115.83.69,Ruble,$7777.85
231,John,Lee,jlee6e@miibeian.gov.cn,China,6.188.81.237,Yuan Renminbi,$14538.92
232,Sandra,Henderson,shenderson6f@prlog.org,Azerbaijan,222.22.21.231,Manat,$21620.47
233,Annie,Gonzales,agonzales6g@dot.gov,Argentina,140.62.32.161,Peso,$4496.57
234,Betty,Gordon,bgordon6h@last.fm,Sierra Leone,42.15.120.206,Leone,$20078.86
235,Martin,Gray,mgray6i@t.co,Venezuela,126.135.23.73,Bolivar,$11704.89
236,Joe,Berry,jberry6j@vimeo.com,China,171.191.78.95,Yuan Renminbi,$20290.15
237,Debra,Day,dday6k@blogger.com,Norway,17.26.12.219,Krone,$9326.62
238,Susan,Matthews,smatthews6l@instagram.com,Indonesia,147.86.28.209,Rupiah,$15323.94
239,Katherine,Lee,klee6m@php.net,Indonesia,15.66.232.100,Rupiah,$1504.99
240,Timothy,Hughes,thughes6n@t.co,Morocco,139.227.168.157,Dirham,$20413.97
241,Ann,Allen,aallen6o@wikimedia.org,Sweden,199.32.167.225,Krona,$3335.69
242,Katherine,Snyder,ksnyder6p@yolasite.com,China,57.20.63.51,Yuan Renminbi,$16305.61
243,Ryan,Martin,rmartin6q@stanford.edu,Czech Republic,28.57.1.49,Koruna,$16385.53
244,Terry,Nelson,tnelson6r@seesaa.net,China,120.145.233.72,Yuan Renminbi,$6805.93
245,Sarah,Williamson,swilliamson6s@qq.com,Indonesia,190.196.77.170,Rupiah,$2775.58
246,Eugene,Vasquez,evasquez6t@noaa.gov,Albania,193.179.107.165,Lek,$5097.49
247,Anna,Garcia,agarcia6u@huffingtonpost.com,Vietnam,65.31.137.1,Dong,$8287.47
248,Craig,Anderson,canderson6v@imageshack.us,China,141.47.7.169,Yuan Renminbi,$22242.39
249,Lawrence,Butler,lbutler6w@youku.com,China,72.104.99.178,Yuan Renminbi,$20044.37
250,Donald,Carroll,dcarroll6x@hubpages.com,Armenia,134.29.36.6,Dram,$23360.79
251,Christopher,Arnold,carnold6y@miibeian.gov.cn,Mexico,36.245.8.31,Peso,$1054.12
252,Virginia,Walker,vwalker6z@facebook.com,Jamaica,50.230.181.141,Dollar,$19006.06
253,Willie,Spencer,wspencer70@pcworld.com,France,101.83.223.85,Euro,$10367.23
254,Gary,Carr,gcarr71@gmpg.org,Switzerland,168.100.213.8,Franc,$18948.93
255,Daniel,Spencer,dspencer72@ucoz.ru,United States,14.179.54.78,Dollar,$9213.68
256,Katherine,Vasquez,kvasquez73@xrea.com,China,65.131.52.31,Yuan Renminbi,$6186.71
257,Sean,Mccoy,smccoy74@flickr.com,Portugal,223.180.113.155,Euro,$423.28
258,Linda,Frazier,lfrazier75@techcrunch.com,Mexico,74.169.22.224,Peso,$24751.85
259,William,Lawson,wlawson76@gravatar.com,Kazakhstan,71.51.58.196,Tenge,$6721.93
260,Diane,Jones,djones77@ask.com,Indonesia,250.63.87.234,Rupiah,$22537.08
261,Kenneth,Carroll,kcarroll78@redcross.org,Vietnam,204.166.40.192,Dong,$23521.36
262,Edward,Fernandez,efernandez79@theatlantic.com,Greece,250.31.152.189,Euro,$7947.23
263,Sandra,Turner,sturner7a@geocities.jp,China,201.151.105.183,Yuan Renminbi,$15920.98
264,Chris,Duncan,cduncan7b@ox.ac.uk,Czech Republic,239.196.128.25,Koruna,$6426.67
265,Brenda,Fowler,bfowler7c@tiny.cc,France,181.87.245.178,Euro,$8910.82
266,Jesse,Carpenter,jcarpenter7d@twitpic.com,Japan,61.2.80.3,Yen,$13909.56
267,Beverly,Wells,bwells7e@opera.com,Indonesia,247.39.96.130,Rupiah,$12679.50
268,Jimmy,Ortiz,jortiz7f@csmonitor.com,China,233.137.110.71,Yuan Renminbi,$18359.70
269,Heather,Robinson,hrobinson7g@w3.org,China,65.245.55.171,Yuan Renminbi,$8384.86
270,Evelyn,Jenkins,ejenkins7h@cam.ac.uk,Russia,211.253.188.240,Ruble,$1010.47
271,Frances,Moreno,fmoreno7i@google.de,Belarus,213.230.128.219,Ruble,$19508.70
272,Jerry,Gutierrez,jgutierrez7j@myspace.com,Russia,133.84.220.42,Ruble,$14808.88
273,Jesse,Hamilton,jhamilton7k@theatlantic.com,Brazil,251.167.23.50,Real,$6201.49
274,Alan,Garrett,agarrett7l@huffingtonpost.com,Argentina,152.238.76.204,Peso,$18007.36
275,Daniel,Butler,dbutler7m@canalblog.com,China,169.230.175.198,Yuan Renminbi,$1352.16
276,Judith,Hansen,jhansen7n@whitehouse.gov,Syria,36.239.171.15,Pound,$16893.52
277,Anthony,Davis,adavis7o@w3.org,Argentina,58.221.71.32,Peso,$10915.98
278,Willie,Watson,wwatson7p@cloudflare.com,Ukraine,23.114.36.135,Hryvnia,$11399.27
279,Thomas,Rodriguez,trodriguez7q@fema.gov,Indonesia,62.157.30.20,Rupiah,$5339.48
280,Theresa,Woods,twoods7r@storify.com,South Africa,140.85.90.107,Rand,$4561.20
281,Janet,Banks,jbanks7s@wordpress.org,Canada,161.28.90.15,Dollar,$13396.03
282,Cynthia,Campbell,ccampbell7t@youtube.com,Ukraine,119.195.251.148,Hryvnia,$13421.20
283,Dennis,Alexander,dalexander7u@reverbnation.com,Czech Republic,93.241.55.250,Koruna,$6691.67
284,Adam,Franklin,afranklin7v@fda.gov,Philippines,137.58.127.203,Peso,$7883.69
285,Harold,Owens,howens7w@prnewswire.com,Cyprus,21.98.120.213,Euro,$11621.15
286,Brian,Castillo,bcastillo7x@un.org,Philippines,107.12.53.150,Peso,$10947.91
287,Phillip,Long,plong7y@princeton.edu,China,230.69.244.82,Yuan Renminbi,$19688.45
288,Nancy,Burns,nburns7z@technorati.com,China,59.253.75.122,Yuan Renminbi,$17625.92
289,Sandra,Hansen,shansen80@hostgator.com,Indonesia,246.127.82.134,Rupiah,$7576.83
290,Denise,Wagner,dwagner81@baidu.com,Comoros,75.252.196.196,Franc,$17976.42
291,Joan,Gomez,jgomez82@census.gov,Indonesia,178.235.45.65,Rupiah,$20514.80
292,Jesse,Morales,jmorales83@berkeley.edu,Indonesia,220.4.165.218,Rupiah,$23667.21
293,Stephanie,Washington,swashington84@google.ca,Russia,188.16.51.109,Ruble,$20818.61
294,Randy,Perez,rperez85@cbsnews.com,Thailand,78.235.233.254,Baht,$16371.19
295,Deborah,Alexander,dalexander86@jalbum.net,Indonesia,116.139.82.40,Rupiah,$23554.65
296,Sara,Ford,sford87@comcast.net,Turkmenistan,67.123.9.132,Manat,$6232.76
297,Ronald,Kelly,rkelly88@histats.com,United States,195.23.26.100,Dollar,$14149.11
298,Louis,Henry,lhenry89@wikimedia.org,Luxembourg,40.67.234.215,Euro,$10311.21
299,Antonio,Banks,abanks8a@vistaprint.com,Indonesia,130.229.222.126,Rupiah,$5852.50
300,Jimmy,Lopez,jlopez8b@icq.com,Uganda,1.231.160.110,Shilling,$6497.88
301,Jean,Jenkins,jjenkins8c@bravesites.com,Mali,185.223.61.10,Franc,$12676.53
302,Russell,Garrett,rgarrett8d@blogs.com,Brazil,7.81.59.247,Real,$11326.20
303,Louise,Shaw,lshaw8e@naver.com,China,37.81.169.168,Yuan Renminbi,$7104.81
304,William,Morris,wmorris8f@merriam-webster.com,Netherlands,193.115.58.101,Euro,$23696.87
305,Tina,Collins,tcollins8g@techcrunch.com,China,157.117.227.111,Yuan Renminbi,$7859.08
306,David,Cunningham,dcunningham8h@smh.com.au,China,74.8.21.123,Yuan Renminbi,$21241.97
307,Philip,Johnston,pjohnston8i@w3.org,Albania,154.107.118.193,Lek,$4860.14
308,Richard,Kim,rkim8j@springer.com,Peru,120.40.15.94,Sol,$7011.92
309,Todd,Black,tblack8k@php.net,Sweden,77.116.176.67,Krona,$22610.82
310,John,Long,jlong8l@craigslist.org,Portugal,92.203.245.111,Euro,$5268.99
311,Ryan,Hill,rhill8m@squarespace.com,Tunisia,50.160.127.246,Dinar,$4580.97
312,Ronald,Ford,rford8n@weibo.com,Indonesia,104.132.98.222,Rupiah,$2874.31
313,Christopher,Freeman,cfreeman8o@zimbio.com,France,76.56.95.221,Euro,$6547.13
314,Fred,Weaver,fweaver8p@acquirethisname.com,Sweden,179.149.221.73,Krona,$1779.10
315,Cynthia,Andrews,candrews8q@latimes.com,Brazil,253.205.241.117,Real,$6704.90
316,Alan,Fowler,afowler8r@mediafire.com,Canada,87.22.248.194,Dollar,$15397.09
317,Douglas,Cunningham,dcunningham8s@multiply.com,Nigeria,151.191.87.243,Naira,$7743.45
318,Billy,Gomez,bgomez8t@mlb.com,Myanmar,113.76.145.59,Kyat,$6830.27
319,Shirley,Weaver,sweaver8u@fotki.com,Japan,249.221.107.229,Yen,$3008.47
320,Billy,Sanders,bsanders8v@guardian.co.uk,France,216.195.175.77,Euro,$7419.48
321,Michael,Gardner,mgardner8w@bizjournals.com,China,137.99.244.114,Yuan Renminbi,$11060.09
322,Carl,Young,cyoung8x@sohu.com,Philippines,39.66.253.247,Peso,$24159.63
323,Frank,Stephens,fstephens8y@baidu.com,Peru,59.37.215.11,Sol,$7039.92
324,Judith,Diaz,jdiaz8z@walmart.com,Armenia,214.171.164.246,Dram,$18918.74
325,Janice,Porter,jporter90@blog.com,Iraq,136.61.67.64,Dinar,$9121.21
326,Eric,Duncan,eduncan91@shutterfly.com,Indonesia,52.201.92.5,Rupiah,$22665.93
327,Bruce,Reid,breid92@google.ru,Indonesia,46.222.86.113,Rupiah,$11118.17
328,Nancy,Johnson,njohnson93@stumbleupon.com,Spain,12.150.97.162,Euro,$5270.26
329,Mildred,Johnson,mjohnson94@twitpic.com,Japan,117.27.149.188,Yen,$2698.15
330,Annie,Morgan,amorgan95@nyu.edu,China,189.89.137.7,Yuan Renminbi,$24776.73
331,Jason,Spencer,jspencer96@usgs.gov,Poland,235.70.181.170,Zloty,$10940.20
332,John,Duncan,jduncan97@ted.com,Indonesia,51.174.84.170,Rupiah,$15676.40
333,Larry,Weaver,lweaver98@hatena.ne.jp,Brazil,113.227.76.130,Real,$525.21
334,Rebecca,Harvey,rharvey99@netlog.com,Indonesia,212.100.86.141,Rupiah,$4297.21
335,Carl,Chavez,cchavez9a@hc360.com,Paraguay,155.187.245.118,Guarani,$24630.49
336,Janet,Roberts,jroberts9b@wikimedia.org,Russia,26.56.140.184,Ruble,$17697.30
337,Jonathan,Freeman,jfreeman9c@friendfeed.com,Indonesia,214.18.18.68,Rupiah,$23129.96
338,Eric,Tucker,etucker9d@furl.net,Poland,123.127.223.44,Zloty,$5107.34
339,Gary,Boyd,gboyd9e@ucsd.edu,France,118.48.173.214,Euro,$20486.56
340,Terry,Franklin,tfranklin9f@walmart.com,Czech Republic,6.55.70.216,Koruna,$3528.52
341,Alan,Henderson,ahenderson9g@alibaba.com,Portugal,140.183.75.113,Euro,$3651.72
342,Samuel,Arnold,sarnold9h@census.gov,China,74.96.93.159,Yuan Renminbi,$21475.94
343,Michael,Russell,mrussell9i@behance.net,Sudan,130.45.234.104,Pound,$16234.75
344,Roy,Boyd,rboyd9j@examiner.com,Brazil,27.9.222.169,Real,$7772.96
345,Jonathan,Duncan,jduncan9k@dropbox.com,Russia,113.220.94.73,Ruble,$22988.51
346,Martha,Hawkins,mhawkins9l@oakley.com,Argentina,123.121.3.100,Peso,$13807.65
347,Wayne,Murray,wmurray9m@hexun.com,China,202.97.228.255,Yuan Renminbi,$18304.75
348,Lawrence,Ramos,lramos9n@ftc.gov,Philippines,251.244.97.138,Peso,$13510.64
349,Barbara,Taylor,btaylor9o@people.com.cn,Russia,23.214.35.131,Ruble,$16423.24
350,Patrick,Hamilton,phamilton9p@amazon.co.jp,China,99.5.43.156,Yuan Renminbi,$6246.78
351,Alan,Warren,awarren9q@un.org,Venezuela,208.119.164.131,Bolivar,$14696.75
352,Phillip,Robertson,probertson9r@slashdot.org,Indonesia,224.16.120.29,Rupiah,$21595.60
353,Emily,Vasquez,evasquez9s@dailymotion.com,Ukraine,66.40.124.128,Hryvnia,$8792.78
354,Joseph,Phillips,jphillips9t@google.es,China,14.11.171.137,Yuan Renminbi,$3961.91
355,George,Hayes,ghayes9u@a8.net,Indonesia,119.249.34.142,Rupiah,$19168.47
356,Amy,Ramirez,aramirez9v@ted.com,Serbia,113.122.22.253,Dinar,$23199.27
357,Matthew,Bryant,mbryant9w@time.com,Russia,79.144.171.245,Ruble,$23223.66
358,John,Holmes,jholmes9x@who.int,Tajikistan,85.157.211.37,Somoni,$21075.28
359,Christine,Bowman,cbowman9y@amazon.de,Poland,3.37.207.183,Zloty,$42.55
360,Julia,Montgomery,jmontgomery9z@tumblr.com,China,207.254.70.176,Yuan Renminbi,$5171.65
361,Brandon,Ferguson,bfergusona0@domainmarket.com,Portugal,235.150.230.105,Euro,$22841.22
362,Sharon,Torres,storresa1@discovery.com,Canada,81.107.99.153,Dollar,$9048.57
363,Gregory,Alvarez,galvareza2@typepad.com,Philippines,133.135.231.148,Peso,$12676.58
364,George,Stevens,gstevensa3@bbb.org,France,194.8.109.41,Euro,$17605.00
365,Jennifer,Smith,jsmitha4@mozilla.com,Brazil,213.190.218.226,Real,$3830.43
366,Janice,Robinson,jrobinsona5@shinystat.com,Pakistan,30.15.119.142,Rupee,$3249.20
367,Emily,Hawkins,ehawkinsa6@icq.com,Philippines,40.95.16.3,Peso,$16595.16
368,Walter,Mcdonald,wmcdonalda7@comsenz.com,China,40.22.210.235,Yuan Renminbi,$2184.14
369,Larry,Perkins,lperkinsa8@shop-pro.jp,Montenegro,246.131.106.172,Euro,$15198.72
370,Douglas,Schmidt,dschmidta9@ftc.gov,China,15.51.108.40,Yuan Renminbi,$229.63
371,Raymond,Long,rlongaa@bing.com,China,12.112.157.170,Yuan Renminbi,$21319.94
372,Daniel,Hart,dhartab@biglobe.ne.jp,China,34.1.159.186,Yuan Renminbi,$16152.88
373,Lori,Robertson,lrobertsonac@nasa.gov,Sweden,225.34.235.233,Krona,$4157.23
374,Dennis,Ramirez,dramirezad@cmu.edu,China,40.255.89.245,Yuan Renminbi,$18119.53
375,Paula,Clark,pclarkae@craigslist.org,Canada,248.209.116.8,Dollar,$23530.13
376,Lori,Morrison,lmorrisonaf@timesonline.co.uk,Colombia,79.235.174.143,Peso,$8321.71
377,Katherine,Richardson,krichardsonag@oakley.com,China,176.69.220.82,Yuan Renminbi,$15463.57
378,Sarah,Webb,swebbah@apache.org,Sweden,124.165.193.208,Krona,$22445.92
379,Wayne,Russell,wrussellai@cdc.gov,China,187.44.171.246,Yuan Renminbi,$24897.63
380,Maria,Carr,mcarraj@hao123.com,China,192.6.97.199,Yuan Renminbi,$18726.89
381,Charles,Welch,cwelchak@reverbnation.com,Indonesia,18.169.148.0,Rupiah,$1369.91
382,Beverly,Elliott,belliottal@vimeo.com,Brazil,220.89.163.219,Real,$20854.05
383,Lori,Morgan,lmorganam@hao123.com,China,95.49.220.171,Yuan Renminbi,$24859.91
384,Amanda,Hayes,ahayesan@free.fr,Sweden,14.197.15.198,Krona,$6734.02
385,Clarence,Hart,chartao@aboutads.info,Czech Republic,102.3.71.78,Koruna,$1711.05
386,Dennis,Peters,dpetersap@zdnet.com,Russia,247.10.157.117,Ruble,$8451.35
387,Russell,Olson,rolsonaq@usgs.gov,China,13.71.77.211,Yuan Renminbi,$18502.07
388,Todd,Howard,thowardar@a8.net,China,67.205.96.171,Yuan Renminbi,$11389.14
389,Sean,Fisher,sfisheras@a8.net,Japan,187.232.72.13,Yen,$2848.21
390,Lillian,Nguyen,lnguyenat@sciencedirect.com,Russia,117.70.92.30,Ruble,$8074.98
391,Tammy,Price,tpriceau@mit.edu,Poland,188.175.35.67,Zloty,$4759.71
392,Theresa,Palmer,tpalmerav@epa.gov,Russia,185.68.94.123,Ruble,$19515.55
393,Alice,Vasquez,avasquezaw@shop-pro.jp,Germany,103.41.52.6,Euro,$21656.69
394,Norma,Torres,ntorresax@biblegateway.com,Honduras,142.247.231.8,Lempira,$18824.29
395,Wayne,Porter,wporteray@shareasale.com,France,62.128.244.46,Euro,$18219.68
396,Beverly,Kennedy,bkennedyaz@google.nl,U.S. Virgin Islands,108.220.29.151,Dollar,$23383.35
397,Amanda,Hawkins,ahawkinsb0@wordpress.com,Brazil,61.219.227.249,Real,$17700.81
398,Michael,Patterson,mpattersonb1@godaddy.com,Finland,133.18.123.54,Euro,$24594.42
399,Joseph,Harvey,jharveyb2@elegantthemes.com,Finland,248.163.107.169,Euro,$24071.18
400,Melissa,Ruiz,mruizb3@weather.com,Indonesia,131.58.177.125,Rupiah,$1846.93
401,Keith,Stone,kstoneb4@ameblo.jp,Argentina,105.252.226.53,Peso,$24628.09
402,Jeffrey,Perry,jperryb5@examiner.com,China,165.210.72.255,Yuan Renminbi,$6876.55
403,Jason,Ortiz,jortizb6@shop-pro.jp,Poland,142.197.57.57,Zloty,$12964.99
404,Fred,Wagner,fwagnerb7@scientificamerican.com,Philippines,189.57.113.60,Peso,$5553.49
405,Roger,Reynolds,rreynoldsb8@tripadvisor.com,Thailand,138.145.235.126,Baht,$13115.40
406,Anne,Bailey,abaileyb9@ihg.com,China,52.225.252.240,Yuan Renminbi,$7888.71
407,Linda,Willis,lwillisba@elpais.com,China,138.250.242.14,Yuan Renminbi,$6320.21
408,Michelle,Morrison,mmorrisonbb@mac.com,China,56.93.2.109,Yuan Renminbi,$1987.03
409,Diane,Lynch,dlynchbc@foxnews.com,China,225.75.165.243,Yuan Renminbi,$23122.44
410,Mary,Jones,mjonesbd@google.ca,Venezuela,45.108.164.25,Bolivar,$12329.17
411,Kathleen,Mitchell,kmitchellbe@e-recht24.de,France,166.184.36.214,Euro,$10268.70
412,Gerald,Perry,gperrybf@squarespace.com,Ivory Coast,58.163.72.114,Franc,$23679.92
413,Randy,Ford,rfordbg@phpbb.com,France,236.180.74.132,Euro,$8111.59
414,Janice,Smith,jsmithbh@icio.us,Tanzania,167.152.83.168,Shilling,$19107.68
415,Andrew,Anderson,aandersonbi@wired.com,China,124.224.249.235,Yuan Renminbi,$4227.39
416,Ernest,Weaver,eweaverbj@salon.com,Portugal,214.218.17.36,Euro,$23205.24
417,Bobby,Watkins,bwatkinsbk@icio.us,Sweden,13.88.217.224,Krona,$702.85
418,Annie,Lawrence,alawrencebl@taobao.com,Indonesia,55.245.60.230,Rupiah,$18989.89
419,Nicholas,Ford,nfordbm@sciencedaily.com,Philippines,3.103.123.139,Peso,$12747.20
420,Robert,Roberts,rrobertsbn@360.cn,Indonesia,200.7.40.78,Rupiah,$18537.69
421,Roy,Dunn,rdunnbo@msu.edu,Argentina,129.24.143.239,Peso,$17016.13
422,Harry,Frazier,hfrazierbp@ameblo.jp,Haiti,233.142.1.169,Gourde,$20271.80
423,Laura,Fuller,lfullerbq@flickr.com,China,139.48.211.169,Yuan Renminbi,$23579.77
424,Juan,Sims,jsimsbr@ycombinator.com,Greece,140.98.97.167,Euro,$21813.23
425,Jeffrey,Bennett,jbennettbs@weebly.com,Russia,123.75.212.50,Ruble,$17156.10
426,Kenneth,Bishop,kbishopbt@europa.eu,Russia,218.54.239.63,Ruble,$1909.03
427,Cheryl,Fowler,cfowlerbu@amazon.com,Russia,178.224.160.153,Ruble,$16355.76
428,Marilyn,Sanchez,msanchezbv@freewebs.com,Poland,70.182.102.246,Zloty,$12986.60
429,Craig,Kelly,ckellybw@mediafire.com,Brazil,235.167.37.91,Real,$22509.13
430,Donald,Harvey,dharveybx@wp.com,China,235.117.114.153,Yuan Renminbi,$17768.35
431,Doris,Jordan,djordanby@paypal.com,China,247.18.130.88,Yuan Renminbi,$2282.60
432,Maria,Berry,mberrybz@kickstarter.com,Dominican Republic,44.213.171.56,Peso,$6891.29
433,Donald,Sims,dsimsc0@unicef.org,Bulgaria,72.226.252.81,Lev,$7803.15
434,Martin,Johnson,mjohnsonc1@accuweather.com,Sweden,32.74.151.25,Krona,$16421.13
435,Julie,Olson,jolsonc2@dmoz.org,China,87.9.121.108,Yuan Renminbi,$5821.01
436,Melissa,Burke,mburkec3@blogger.com,China,182.124.161.180,Yuan Renminbi,$6766.67
437,Douglas,Garrett,dgarrettc4@nature.com,Moldova,106.201.160.125,Leu,$9245.59
438,Linda,Day,ldayc5@so-net.ne.jp,China,165.17.69.171,Yuan Renminbi,$12463.03
439,Lisa,Sanders,lsandersc6@shinystat.com,Iran,110.125.160.33,Rial,$14199.89
440,Karen,Thompson,kthompsonc7@mlb.com,China,70.221.122.80,Yuan Renminbi,$5879.60
441,Jeremy,Perkins,jperkinsc8@forbes.com,Cameroon,192.237.250.240,Franc,$16428.47
442,Ashley,Jenkins,ajenkinsc9@phoca.cz,China,124.118.39.121,Yuan Renminbi,$23005.98
443,Phillip,Jackson,pjacksonca@walmart.com,Indonesia,126.151.212.21,Rupiah,$12222.24
444,Ryan,Fowler,rfowlercb@multiply.com,China,228.210.47.33,Yuan Renminbi,$7506.58
445,Rebecca,Daniels,rdanielscc@fc2.com,Philippines,222.37.13.212,Peso,$2040.84
446,Margaret,Scott,mscottcd@constantcontact.com,Brazil,88.139.102.70,Real,$11898.75
447,Jack,West,jwestce@tiny.cc,Indonesia,139.58.168.85,Rupiah,$13736.70
448,Anthony,Lopez,alopezcf@irs.gov,Indonesia,47.232.59.153,Rupiah,$13355.71
449,Stephanie,Bowman,sbowmancg@issuu.com,Syria,209.188.177.240,Pound,$11914.23
450,Teresa,Payne,tpaynech@nydailynews.com,Brazil,201.111.146.176,Real,$10709.64
451,David,Reid,dreidci@weather.com,China,193.14.202.80,Yuan Renminbi,$11423.92
452,Harry,Butler,hbutlercj@nasa.gov,Russia,96.118.253.195,Ruble,$7589.61
453,Kathryn,Romero,kromerock@usda.gov,Brazil,209.12.47.214,Real,$24127.83
454,Diana,Patterson,dpattersoncl@sohu.com,Philippines,17.198.162.80,Peso,$18493.02
455,Roy,Thompson,rthompsoncm@a8.net,China,157.109.149.185,Yuan Renminbi,$24369.03
456,Jennifer,Rivera,jriveracn@microsoft.com,China,223.62.241.100,Yuan Renminbi,$6702.67
457,Randy,Jackson,rjacksonco@vimeo.com,Thailand,192.206.194.177,Baht,$15069.48
458,Diane,Mccoy,dmccoycp@ucoz.com,China,97.171.69.55,Yuan Renminbi,$20556.87
459,Julia,Shaw,jshawcq@netlog.com,Madagascar,63.133.128.167,Ariary,$21804.92
460,Christopher,Nichols,cnicholscr@istockphoto.com,Russia,164.68.199.76,Ruble,$23815.69
461,Ashley,Tucker,atuckercs@seesaa.net,Peru,162.225.248.122,Sol,$21836.35
462,Phillip,White,pwhitect@uiuc.edu,Georgia,207.44.241.8,Lari,$1366.23
463,Joe,Andrews,jandrewscu@usnews.com,Albania,123.189.94.163,Lek,$19348.11
464,John,Olson,jolsoncv@google.com.br,Thailand,51.204.217.184,Baht,$17395.39
465,Billy,Robinson,brobinsoncw@gravatar.com,China,62.251.106.58,Yuan Renminbi,$19746.71
466,Joan,Moreno,jmorenocx@nydailynews.com,South Africa,161.65.120.144,Rand,$5709.55
467,Justin,Johnson,jjohnsoncy@163.com,Bosnia and Herzegovina,139.171.131.147,Marka,$15590.78
468,Henry,Rogers,hrogerscz@irs.gov,France,118.188.107.252,Euro,$22423.67
469,Marilyn,Bell,mbelld0@ucsd.edu,Indonesia,254.242.172.207,Rupiah,$6959.71
470,Henry,Mitchell,hmitchelld1@utexas.edu,Indonesia,105.176.204.15,Rupiah,$9584.82
471,Eugene,Elliott,eelliottd2@macromedia.com,Pakistan,58.140.241.21,Rupee,$21069.26
472,Theresa,Alvarez,talvarezd3@addthis.com,Indonesia,0.67.143.42,Rupiah,$7860.25
473,Stephanie,Gibson,sgibsond4@illinois.edu,France,250.178.244.198,Euro,$15262.31
474,Richard,Oliver,roliverd5@blinklist.com,Brazil,12.163.47.110,Real,$16963.77
475,Mary,Day,mdayd6@spotify.com,Peru,45.202.36.186,Sol,$22884.31
476,Katherine,Howard,khowardd7@cornell.edu,Germany,171.213.113.193,Euro,$20051.94
477,Louis,Morgan,lmorgand8@economist.com,Indonesia,209.163.105.200,Rupiah,$3668.51
478,Wanda,Richardson,wrichardsond9@simplemachines.org,Peru,24.172.45.247,Sol,$1293.48
479,Rachel,Perry,rperryda@opensource.org,Greece,83.179.91.211,Euro,$2765.41
480,Joan,Phillips,jphillipsdb@google.ru,Colombia,235.226.60.232,Peso,$450.29
481,Albert,Torres,atorresdc@miitbeian.gov.cn,Sweden,222.7.209.239,Krona,$10793.51
482,Evelyn,Austin,eaustindd@youtu.be,Argentina,153.95.150.104,Peso,$19152.57
483,Carlos,Kim,ckimde@omniture.com,Indonesia,172.213.34.192,Rupiah,$8891.94
484,Nicholas,Martinez,nmartinezdf@time.com,China,65.139.127.67,Yuan Renminbi,$7265.71
485,Kimberly,Phillips,kphillipsdg@yellowpages.com,China,126.92.108.104,Yuan Renminbi,$18044.69
486,Samuel,Knight,sknightdh@nytimes.com,Indonesia,17.159.36.72,Rupiah,$23257.67
487,Betty,Shaw,bshawdi@bbc.co.uk,Portugal,188.248.146.173,Euro,$24639.50
488,Lori,Fisher,lfisherdj@cmu.edu,Philippines,57.44.14.211,Peso,$23870.85
489,Arthur,Gutierrez,agutierrezdk@bloglovin.com,Thailand,245.198.107.35,Baht,$11608.29
490,Margaret,Morales,mmoralesdl@furl.net,Portugal,106.12.85.69,Euro,$23204.86
491,Donald,Fields,dfieldsdm@whitehouse.gov,Japan,194.208.3.197,Yen,$20332.67
492,Ernest,Stephens,estephensdn@infoseek.co.jp,Dominican Republic,213.140.201.115,Peso,$12743.33
493,Nicole,Cox,ncoxdo@simplemachines.org,Philippines,168.52.52.23,Peso,$11767.28
494,Irene,Gomez,igomezdp@ucla.edu,Swaziland,244.130.31.243,Lilangeni,$4831.36
495,Michael,Wells,mwellsdq@ustream.tv,Indonesia,98.96.76.152,Rupiah,$8880.39
496,Norma,Olson,nolsondr@wikipedia.org,Japan,95.229.52.186,Yen,$9181.49
497,Christopher,Flores,cfloresds@google.it,Indonesia,65.134.228.17,Rupiah,$13256.40
498,Annie,Tucker,atuckerdt@reference.com,China,70.56.220.48,Yuan Renminbi,$2259.73
499,Jean,Andrews,jandrewsdu@independent.co.uk,Argentina,199.128.13.128,Peso,$16660.11
500,Joe,Harris,jharrisdv@techcrunch.com,China,68.104.248.226,Yuan Renminbi,$23298.42
501,Brenda,George,bgeorgedw@ca.gov,China,151.141.58.142,Yuan Renminbi,$12290.30
502,Henry,Martin,hmartindx@nps.gov,Brazil,235.86.189.66,Real,$9311.55
503,Carolyn,Rivera,criverady@state.tx.us,Mexico,73.81.28.220,Peso,$858.96
504,Victor,Hicks,vhicksdz@trellian.com,Indonesia,201.82.40.3,Rupiah,$24490.80
505,Jeremy,Fowler,jfowlere0@squarespace.com,Azerbaijan,99.207.48.27,Manat,$12192.45
506,Angela,Ford,aforde1@msu.edu,Tanzania,150.203.107.56,Shilling,$22317.34
507,Karen,Morgan,kmorgane2@vimeo.com,Benin,81.66.130.112,Franc,$17654.14
508,Amy,Grant,agrante3@hc360.com,Indonesia,78.147.7.167,Rupiah,$13068.83
509,Steven,Martin,smartine4@cdc.gov,Argentina,76.100.117.118,Peso,$9507.79
510,Kathleen,Frazier,kfraziere5@businesswire.com,Iran,37.1.222.112,Rial,$24746.19
511,Todd,Sullivan,tsullivane6@slashdot.org,China,220.37.238.126,Yuan Renminbi,$5218.39
512,Philip,Mills,pmillse7@youtu.be,Armenia,5.113.61.173,Dram,$22075.11
513,Melissa,Thompson,mthompsone8@seattletimes.com,Lithuania,13.100.130.248,Litas,$11644.59
514,Christina,Montgomery,cmontgomerye9@paypal.com,Indonesia,213.106.51.243,Rupiah,$23598.50
515,Joyce,Hamilton,jhamiltonea@acquirethisname.com,Italy,136.182.200.162,Euro,$15281.25
516,Tammy,Ramos,tramoseb@rambler.ru,Paraguay,98.161.65.102,Guarani,$9103.26
517,Lillian,Simmons,lsimmonsec@ftc.gov,Russia,28.158.122.216,Ruble,$24064.10
518,Betty,Barnes,bbarnesed@census.gov,Venezuela,142.250.9.110,Bolivar,$14147.98
519,Heather,Rivera,hriveraee@wikimedia.org,Russia,98.46.174.137,Ruble,$24995.45
520,Billy,Phillips,bphillipsef@goo.gl,Palestinian Territory,70.229.12.242,Shekel,$7709.80
521,Willie,Crawford,wcrawfordeg@jalbum.net,Norway,182.1.106.231,Krone,$8931.07
522,Kenneth,Harper,kharpereh@hugedomains.com,Indonesia,152.21.31.104,Rupiah,$18146.22
523,Frances,Turner,fturnerei@mit.edu,China,124.142.89.242,Yuan Renminbi,$5472.10
524,Martha,Reynolds,mreynoldsej@japanpost.jp,China,86.215.126.24,Yuan Renminbi,$4004.11
525,Emily,Bell,ebellek@hostgator.com,Ukraine,79.113.218.196,Hryvnia,$21777.25
526,Sean,Griffin,sgriffinel@engadget.com,Afghanistan,226.183.145.17,Afghani,$16754.35
527,Daniel,Cole,dcoleem@redcross.org,Indonesia,189.146.125.104,Rupiah,$3326.01
528,George,Ray,grayen@cdc.gov,Portugal,156.121.139.35,Euro,$7181.45
529,Carol,Gutierrez,cgutierrezeo@fc2.com,Sweden,66.12.212.248,Krona,$11131.34
530,Kelly,King,kkingep@auda.org.au,Nigeria,136.101.57.207,Naira,$2044.67
531,Chris,Reynolds,creynoldseq@skyrock.com,China,246.81.62.199,Yuan Renminbi,$2569.61
532,Janet,Owens,jowenser@xinhuanet.com,Chile,189.74.226.188,Peso,$3028.14
533,Julia,Lawrence,jlawrencees@wired.com,Myanmar,59.222.173.92,Kyat,$21313.58
534,Christine,Jones,cjoneset@google.pl,United States,95.79.5.229,Dollar,$14889.30
535,Evelyn,Bishop,ebishopeu@smugmug.com,Indonesia,97.149.202.13,Rupiah,$14224.38
536,Patrick,Jenkins,pjenkinsev@nature.com,Palestinian Territory,19.210.236.246,Shekel,$953.77
537,Paul,Moore,pmooreew@squarespace.com,Bolivia,92.79.26.179,Boliviano,$14803.71
538,Anna,Porter,aporterex@nature.com,Colombia,171.51.96.46,Peso,$16651.82
539,Albert,Gilbert,agilbertey@tripod.com,Indonesia,115.111.244.62,Rupiah,$8621.81
540,Jean,Harper,jharperez@google.com,Argentina,211.34.231.112,Peso,$12970.68
541,Chris,Nichols,cnicholsf0@apple.com,Tanzania,34.121.120.132,Shilling,$2175.78
542,Nicholas,Sanders,nsandersf1@zdnet.com,North Korea,33.28.139.89,Won,$8397.97
543,Christopher,Riley,crileyf2@chicagotribune.com,Ecuador,49.65.248.216,Dollar,$17914.31
544,Teresa,Jones,tjonesf3@google.nl,Russia,2.78.215.155,Ruble,$12173.09
545,Robert,Hunter,rhunterf4@mashable.com,Kazakhstan,87.56.127.75,Tenge,$22681.91
546,Joshua,Ramos,jramosf5@domainmarket.com,Kazakhstan,202.48.66.247,Tenge,$17278.11
547,Amanda,Cooper,acooperf6@sciencedaily.com,Portugal,231.184.152.220,Euro,$16990.92
548,Jack,Green,jgreenf7@mashable.com,Portugal,236.61.98.69,Euro,$10082.40
549,Robert,Rice,rricef8@pen.io,Sweden,185.128.145.59,Krona,$532.47
550,Sean,Howard,showardf9@utexas.edu,Sweden,236.61.22.206,Krona,$20456.65
551,Barbara,Montgomery,bmontgomeryfa@senate.gov,Indonesia,145.145.97.146,Rupiah,$8306.51
552,Theresa,Nguyen,tnguyenfb@reuters.com,Indonesia,41.217.10.172,Rupiah,$12759.10
553,Kathryn,Watson,kwatsonfc@elpais.com,Brazil,245.42.235.112,Real,$15149.56
554,Edward,Sanders,esandersfd@rediff.com,Russia,35.150.179.210,Ruble,$78.85
555,Elizabeth,Black,eblackfe@1und1.de,Indonesia,164.123.136.237,Rupiah,$3752.25
556,Michael,Lawrence,mlawrenceff@opera.com,Poland,147.6.99.104,Zloty,$4567.32
557,Kimberly,Bryant,kbryantfg@nba.com,Czech Republic,243.111.236.236,Koruna,$915.75
558,Jonathan,Stewart,jstewartfh@lulu.com,China,211.245.32.118,Yuan Renminbi,$21860.07
559,Scott,Edwards,sedwardsfi@phoca.cz,Indonesia,111.142.134.188,Rupiah,$12918.04
560,Keith,Porter,kporterfj@google.de,Portugal,250.78.10.104,Euro,$2391.65
561,Amy,Pierce,apiercefk@fastcompany.com,China,2.156.119.136,Yuan Renminbi,$19773.11
562,Donald,Howard,dhowardfl@about.com,China,172.168.56.182,Yuan Renminbi,$24949.91
563,Todd,Hicks,thicksfm@elegantthemes.com,Mexico,168.157.55.112,Peso,$12023.53
564,Kelly,Gonzales,kgonzalesfn@nationalgeographic.com,China,80.83.16.130,Yuan Renminbi,$10725.55
565,Mary,Medina,mmedinafo@dmoz.org,Czech Republic,239.44.129.79,Koruna,$23874.79
566,Shirley,Carter,scarterfp@cafepress.com,China,39.59.182.164,Yuan Renminbi,$11565.87
567,Jonathan,Allen,jallenfq@businesswire.com,China,170.55.18.209,Yuan Renminbi,$3702.87
568,Frank,Berry,fberryfr@deliciousdays.com,Thailand,60.108.181.178,Baht,$12126.37
569,Christopher,James,cjamesfs@instagram.com,China,60.80.191.160,Yuan Renminbi,$13225.68
570,Gregory,Snyder,gsnyderft@usgs.gov,Honduras,209.99.17.44,Lempira,$1403.85
571,Samuel,Warren,swarrenfu@gnu.org,Bhutan,223.198.192.228,Ngultrum,$17867.30
572,Deborah,Welch,dwelchfv@hibu.com,France,185.35.191.37,Euro,$16569.85
573,Jacqueline,Arnold,jarnoldfw@bing.com,Philippines,77.176.74.52,Peso,$5584.45
574,Marie,Freeman,mfreemanfx@ucla.edu,China,112.198.200.59,Yuan Renminbi,$3977.72
575,Bobby,Gutierrez,bgutierrezfy@unicef.org,China,50.43.138.123,Yuan Renminbi,$21746.68
576,Jacqueline,Pierce,jpiercefz@goo.gl,Bolivia,41.186.180.22,Boliviano,$8992.59
577,Dorothy,Ortiz,dortizg0@comsenz.com,Russia,4.39.244.93,Ruble,$20236.23
578,Annie,Foster,afosterg1@diigo.com,Peru,198.24.207.169,Sol,$1440.85
579,Marilyn,Ramos,mramosg2@wired.com,Syria,186.218.97.231,Pound,$9728.06
580,Carolyn,Garcia,cgarciag3@springer.com,Poland,14.167.205.49,Zloty,$288.79
581,Jennifer,Watkins,jwatkinsg4@kickstarter.com,Russia,128.168.18.215,Ruble,$7888.37
582,Carl,Larson,clarsong5@ameblo.jp,Serbia,71.55.230.119,Dinar,$3125.29
583,Thomas,Graham,tgrahamg6@posterous.com,Portugal,89.25.228.236,Euro,$3276.71
584,Frank,Wright,fwrightg7@archive.org,Indonesia,247.234.39.88,Rupiah,$3071.87
585,Stephanie,Gray,sgrayg8@scribd.com,China,143.132.107.240,Yuan Renminbi,$16355.19
586,Andrew,Hart,ahartg9@businessinsider.com,Philippines,129.250.214.13,Peso,$10524.40
587,Jeremy,Jackson,jjacksonga@simplemachines.org,Georgia,197.226.167.69,Lari,$19069.08
588,George,Green,ggreengb@miibeian.gov.cn,China,231.47.47.123,Yuan Renminbi,$24564.82
589,Martha,Black,mblackgc@amazonaws.com,Philippines,29.174.71.56,Peso,$15853.16
590,Philip,Gordon,pgordongd@constantcontact.com,Sweden,245.139.134.181,Krona,$17952.88
591,Beverly,Matthews,bmatthewsge@chicagotribune.com,Portugal,248.221.159.18,Euro,$18784.63
592,Dorothy,Crawford,dcrawfordgf@i2i.jp,China,171.208.64.105,Yuan Renminbi,$17087.43
593,Craig,Harvey,charveygg@so-net.ne.jp,Philippines,231.200.62.35,Peso,$12484.72
594,Roy,Russell,rrussellgh@github.io,Russia,214.227.40.0,Ruble,$7724.74
595,Virginia,Spencer,vspencergi@china.com.cn,Niger,51.132.48.238,Franc,$1057.43
596,Brandon,Wells,bwellsgj@shop-pro.jp,Poland,243.31.8.254,Zloty,$10859.16
597,Steve,Ward,swardgk@weather.com,Philippines,203.161.79.13,Peso,$5404.71
598,Henry,Smith,hsmithgl@flickr.com,Indonesia,177.250.42.208,Rupiah,$1812.70
599,Barbara,Reyes,breyesgm@apache.org,Philippines,16.49.187.167,Peso,$12811.26
600,Pamela,Murray,pmurraygn@patch.com,France,153.241.170.132,Euro,$6266.90
601,Carl,Robinson,crobinsongo@epa.gov,France,103.57.181.90,Euro,$24737.22
602,Carol,Lane,clanegp@blogger.com,Poland,78.177.189.196,Zloty,$1942.54
603,Steven,Garcia,sgarciagq@imgur.com,Colombia,69.26.127.1,Peso,$14822.80
604,Raymond,Cook,rcookgr@un.org,Russia,218.121.79.153,Ruble,$15194.28
605,Tina,Ross,trossgs@youku.com,United States,212.225.187.15,Dollar,$2322.50
606,Benjamin,Reid,breidgt@home.pl,China,253.20.116.169,Yuan Renminbi,$18508.27
607,Gloria,Hill,ghillgu@trellian.com,Czech Republic,142.16.113.140,Koruna,$21415.90
608,Fred,Jenkins,fjenkinsgv@t.co,Kenya,143.228.71.183,Shilling,$11275.19
609,Jack,Miller,jmillergw@chicagotribune.com,Portugal,234.205.236.254,Euro,$1755.03
610,Kimberly,Moore,kmooregx@cafepress.com,Venezuela,83.227.170.126,Bolivar,$7062.80
611,Albert,Montgomery,amontgomerygy@google.fr,China,95.222.80.20,Yuan Renminbi,$11348.46
612,Joe,Pierce,jpiercegz@naver.com,Peru,14.68.91.163,Sol,$9728.29
613,Benjamin,Fields,bfieldsh0@blinklist.com,United States,233.58.70.205,Dollar,$24443.94
614,Jack,Tucker,jtuckerh1@walmart.com,Ukraine,66.66.145.62,Hryvnia,$7020.24
615,Anthony,Ruiz,aruizh2@cocolog-nifty.com,Canada,249.229.99.146,Dollar,$19082.82
616,Raymond,Nelson,rnelsonh3@biblegateway.com,Argentina,128.179.113.47,Peso,$21949.47
617,Michael,Hernandez,mhernandezh4@devhub.com,Argentina,246.163.21.40,Peso,$19864.50
618,Margaret,Simmons,msimmonsh5@sciencedirect.com,Russia,247.155.104.228,Ruble,$23484.05
619,Christine,Perry,cperryh6@wufoo.com,China,178.79.57.62,Yuan Renminbi,$15877.63
620,Alice,Roberts,arobertsh7@guardian.co.uk,Kazakhstan,55.26.234.162,Tenge,$665.85
621,Jonathan,Palmer,jpalmerh8@google.co.uk,Portugal,122.216.148.248,Euro,$24346.50
622,Alice,Weaver,aweaverh9@youku.com,Indonesia,94.250.39.46,Rupiah,$21982.51
623,Julie,Armstrong,jarmstrongha@buzzfeed.com,France,53.251.150.9,Euro,$12624.38
624,Lori,Martin,lmartinhb@indiatimes.com,China,113.139.127.192,Yuan Renminbi,$13557.31
625,Christine,Wilson,cwilsonhc@foxnews.com,Indonesia,12.171.52.141,Rupiah,$20075.42
626,Nancy,Cruz,ncruzhd@baidu.com,Argentina,192.91.179.78,Peso,$19889.93
627,Willie,Henry,whenryhe@toplist.cz,China,90.35.59.228,Yuan Renminbi,$20970.12
628,Joshua,Stanley,jstanleyhf@dmoz.org,United States,59.197.39.119,Dollar,$12164.61
629,Linda,Mills,lmillshg@hao123.com,Angola,214.65.226.76,Kwanza,$14218.00
630,Pamela,Hughes,phugheshh@pagesperso-orange.fr,Slovenia,47.21.211.97,Euro,$7362.76
631,Barbara,Peterson,bpetersonhi@nifty.com,Latvia,38.77.189.6,Euro,$2028.33
632,Clarence,Larson,clarsonhj@irs.gov,Morocco,116.18.160.133,Dirham,$508.58
633,Anne,Jenkins,ajenkinshk@prnewswire.com,Poland,115.102.117.200,Zloty,$24004.78
634,Phillip,Webb,pwebbhl@archive.org,Sweden,31.97.108.189,Krona,$21173.75
635,Ashley,Ford,afordhm@dyndns.org,Dominican Republic,88.31.40.62,Peso,$17503.18
636,Nancy,Brooks,nbrookshn@macromedia.com,Mongolia,76.175.195.101,Tugrik,$17794.64
637,Kathy,Dunn,kdunnho@imageshack.us,Indonesia,119.204.0.0,Rupiah,$9383.04
638,Michael,Holmes,mholmeshp@blog.com,Vietnam,34.82.124.50,Dong,$16763.34
639,Albert,Riley,arileyhq@bluehost.com,China,201.202.20.109,Yuan Renminbi,$24968.21
640,Roy,Fernandez,rfernandezhr@hc360.com,United States,11.84.203.50,Dollar,$15256.69
641,Todd,Ray,trayhs@prlog.org,China,210.156.191.98,Yuan Renminbi,$24204.87
642,Larry,Campbell,lcampbellht@globo.com,Nigeria,127.202.130.213,Naira,$2062.52
643,Carl,Garcia,cgarciahu@youku.com,Russia,241.226.254.172,Ruble,$2838.46
644,Norma,Stone,nstonehv@howstuffworks.com,China,128.51.218.129,Yuan Renminbi,$18811.45
645,Tammy,Lane,tlanehw@twitter.com,Russia,15.243.137.42,Ruble,$24990.29
646,Jose,Burton,jburtonhx@mtv.com,Sweden,177.25.140.138,Krona,$17075.05
647,Andrew,Ellis,aellishy@zdnet.com,China,42.83.56.143,Yuan Renminbi,$20203.51
648,Elizabeth,West,ewesthz@sourceforge.net,Philippines,159.30.52.145,Peso,$3796.63
649,Harry,Robertson,hrobertsoni0@shareasale.com,Sweden,215.144.161.207,Krona,$16917.92
650,Wanda,Russell,wrusselli1@pagesperso-orange.fr,United States,127.200.130.205,Dollar,$20368.31
651,Mark,Nguyen,mnguyeni2@nbcnews.com,Macedonia,243.159.38.115,Denar,$3815.67
652,Lori,Oliver,loliveri3@discovery.com,Indonesia,150.111.200.216,Rupiah,$17136.62
653,Lori,Carr,lcarri4@sphinn.com,Tunisia,116.101.103.193,Dinar,$17267.33
654,Diana,Thomas,dthomasi5@oaic.gov.au,Peru,203.61.35.159,Sol,$6521.27
655,Jeffrey,Lane,jlanei6@vinaora.com,Portugal,114.254.123.32,Euro,$16139.70
656,Barbara,Russell,brusselli7@etsy.com,Brazil,167.51.201.1,Real,$8415.38
657,Victor,Young,vyoungi8@berkeley.edu,China,128.88.211.13,Yuan Renminbi,$14118.23
658,Carl,Wagner,cwagneri9@amazon.de,Ethiopia,4.141.106.240,Birr,$22891.58
659,Henry,Mitchell,hmitchellia@icq.com,El Salvador,96.244.241.255,Dollar,$13248.66
660,Donald,Lawson,dlawsonib@statcounter.com,Portugal,58.210.224.18,Euro,$14752.78
661,Kathryn,Ramirez,kramirezic@parallels.com,France,251.129.92.240,Euro,$8413.05
662,Sandra,Hunt,shuntid@creativecommons.org,Czech Republic,165.189.132.39,Koruna,$24212.45
663,James,Phillips,jphillipsie@ocn.ne.jp,Indonesia,37.14.40.91,Rupiah,$13306.04
664,Stephen,Berry,sberryif@taobao.com,Canada,158.66.223.216,Dollar,$10379.14
665,Teresa,Kelley,tkelleyig@biglobe.ne.jp,Poland,122.177.21.63,Zloty,$5248.08
666,Denise,Hawkins,dhawkinsih@unc.edu,Iran,10.77.74.219,Rial,$370.27
667,Kenneth,Lawson,klawsonii@ihg.com,Cuba,166.0.52.59,Peso,$15319.92
668,Carlos,Henderson,chendersonij@newsvine.com,Japan,232.136.26.7,Yen,$17584.93
669,Arthur,George,ageorgeik@amazon.co.uk,Ukraine,142.148.12.126,Hryvnia,$19710.12
670,Craig,Rivera,criverail@buzzfeed.com,Russia,252.22.232.222,Ruble,$3133.20
671,Sean,Campbell,scampbellim@last.fm,Portugal,67.208.21.230,Euro,$13432.99
672,Gloria,Frazier,gfrazierin@state.gov,Indonesia,15.149.13.60,Rupiah,$13789.96
673,Paula,Mccoy,pmccoyio@marriott.com,Philippines,182.224.201.128,Peso,$4927.33
674,Jerry,Carter,jcarterip@prlog.org,Palestinian Territory,131.155.91.139,Shekel,$14955.00
675,Antonio,Fowler,afowleriq@narod.ru,Philippines,58.160.238.41,Peso,$17034.44
676,Timothy,Schmidt,tschmidtir@domainmarket.com,Nigeria,6.97.249.104,Naira,$19643.76
677,Antonio,Hicks,ahicksis@bing.com,Brazil,178.248.149.46,Real,$2854.03
678,Harry,Nguyen,hnguyenit@boston.com,Canada,57.37.130.100,Dollar,$12824.28
679,Philip,Moreno,pmorenoiu@php.net,Czech Republic,25.129.219.179,Koruna,$4410.52
680,Russell,Gibson,rgibsoniv@topsy.com,Indonesia,207.210.66.20,Rupiah,$7964.16
681,Edward,Mills,emillsiw@moonfruit.com,Indonesia,115.108.80.36,Rupiah,$947.64
682,George,Grant,ggrantix@youku.com,Philippines,37.44.252.239,Peso,$10799.92
683,Cynthia,Allen,calleniy@themeforest.net,China,166.218.191.108,Yuan Renminbi,$8896.94
684,Ronald,Mendoza,rmendozaiz@tamu.edu,Brazil,30.38.189.198,Real,$9824.01
685,Judy,Johnston,jjohnstonj0@sun.com,Poland,161.130.50.201,Zloty,$20736.36
686,Marie,Porter,mporterj1@51.la,Estonia,75.189.187.121,Euro,$14442.28
687,Janice,Palmer,jpalmerj2@hc360.com,China,158.135.225.160,Yuan Renminbi,$21392.64
688,Kevin,Hernandez,khernandezj3@hud.gov,Indonesia,176.21.127.234,Rupiah,$21686.58
689,Andrew,Hernandez,ahernandezj4@theatlantic.com,Portugal,90.187.56.39,Euro,$6517.74
690,Robert,Hawkins,rhawkinsj5@omniture.com,France,115.160.124.86,Euro,$6151.13
691,Julie,Hart,jhartj6@exblog.jp,China,59.234.117.11,Yuan Renminbi,$3847.41
692,Alan,Phillips,aphillipsj7@sogou.com,Czech Republic,161.197.198.182,Koruna,$7136.64
693,Laura,Wood,lwoodj8@icio.us,Ukraine,178.131.169.253,Hryvnia,$23936.07
694,Randy,Alexander,ralexanderj9@ovh.net,Chile,149.150.175.70,Peso,$20501.31
695,Teresa,Bradley,tbradleyja@unc.edu,China,198.148.188.231,Yuan Renminbi,$4528.98
696,Kimberly,Berry,kberryjb@uol.com.br,Peru,150.117.25.48,Sol,$3251.86
697,Steven,Johnson,sjohnsonjc@wikipedia.org,China,106.214.196.34,Yuan Renminbi,$15812.14
698,Mildred,Hernandez,mhernandezjd@fastcompany.com,Poland,58.228.33.16,Zloty,$24448.84
699,Anna,Riley,arileyje@artisteer.com,United States,86.20.91.77,Dollar,$11647.64
700,Cheryl,Hanson,chansonjf@miitbeian.gov.cn,China,165.80.162.231,Yuan Renminbi,$16870.08
701,Jennifer,James,jjamesjg@naver.com,Colombia,95.71.112.204,Peso,$12866.91
702,Frances,Jordan,fjordanjh@ifeng.com,United States,124.244.150.221,Dollar,$20644.56
703,Ann,Matthews,amatthewsji@cloudflare.com,Cuba,199.183.9.219,Peso,$14745.01
704,Catherine,Holmes,cholmesjj@nationalgeographic.com,Mongolia,54.16.22.37,Tugrik,$12967.20
705,Karen,Jacobs,kjacobsjk@icq.com,Botswana,57.162.55.168,Pula,$7814.75
706,Aaron,Berry,aberryjl@360.cn,China,187.158.101.64,Yuan Renminbi,$7905.75
707,Phyllis,Watkins,pwatkinsjm@ted.com,Russia,53.199.36.54,Ruble,$11968.80
708,Mildred,Gordon,mgordonjn@list-manage.com,Philippines,138.88.254.186,Peso,$24416.13
709,Ryan,Ruiz,rruizjo@examiner.com,Poland,124.144.57.95,Zloty,$14945.49
710,Raymond,Scott,rscottjp@abc.net.au,Indonesia,242.6.191.164,Rupiah,$5013.55
711,Helen,Watkins,hwatkinsjq@reference.com,Indonesia,234.81.115.77,Rupiah,$10829.64
712,Jack,Foster,jfosterjr@intel.com,China,69.7.162.97,Yuan Renminbi,$21961.26
713,Earl,Williamson,ewilliamsonjs@bandcamp.com,Brazil,73.16.45.62,Real,$14529.46
714,Angela,George,ageorgejt@tamu.edu,China,106.38.141.125,Yuan Renminbi,$10613.69
715,Judith,Burton,jburtonju@abc.net.au,Senegal,119.115.33.193,Franc,$16365.90
716,Philip,Stone,pstonejv@mtv.com,Russia,230.115.191.145,Ruble,$6826.60
717,Todd,Robertson,trobertsonjw@quantcast.com,Russia,103.62.108.192,Ruble,$15284.15
718,Johnny,Fernandez,jfernandezjx@homestead.com,China,188.4.5.177,Yuan Renminbi,$17438.00
719,Sharon,Carroll,scarrolljy@delicious.com,Indonesia,242.214.65.150,Rupiah,$20009.19
720,Juan,Mills,jmillsjz@tmall.com,Indonesia,127.219.74.207,Rupiah,$14542.43
721,Margaret,Alexander,malexanderk0@nytimes.com,Indonesia,74.199.68.123,Rupiah,$20902.19
722,Cynthia,Romero,cromerok1@usgs.gov,Poland,229.115.56.33,Zloty,$133.64
723,Steven,Green,sgreenk2@github.io,Sweden,102.10.33.82,Krona,$20385.45
724,Gregory,Powell,gpowellk3@dagondesign.com,Brazil,132.73.131.64,Real,$22112.92
725,Pamela,Perry,pperryk4@technorati.com,Russia,254.190.34.153,Ruble,$11543.81
726,Benjamin,Bennett,bbennettk5@marketwatch.com,China,156.181.193.241,Yuan Renminbi,$20806.80
727,Joan,Perkins,jperkinsk6@alibaba.com,Armenia,97.188.251.208,Dram,$24084.75
728,Jessica,King,jkingk7@fastcompany.com,Sweden,229.24.99.213,Krona,$18409.53
729,Jacqueline,Barnes,jbarnesk8@google.es,Ecuador,229.206.157.24,Dollar,$21461.68
730,Tina,Oliver,toliverk9@aol.com,Tanzania,115.139.213.187,Shilling,$24012.42
731,Sara,Watson,swatsonka@washingtonpost.com,Indonesia,5.67.173.212,Rupiah,$9967.63
732,Diana,Allen,dallenkb@washingtonpost.com,Brazil,109.244.217.157,Real,$11440.19
733,Marilyn,Watkins,mwatkinskc@discuz.net,France,91.91.85.46,Euro,$8907.82
734,Adam,Ramirez,aramirezkd@4shared.com,China,179.69.240.39,Yuan Renminbi,$10837.86
735,Raymond,Stephens,rstephenske@umich.edu,Indonesia,163.101.126.219,Rupiah,$3850.41
736,Christina,Davis,cdaviskf@comcast.net,Indonesia,146.14.38.111,Rupiah,$17143.97
737,Benjamin,Bradley,bbradleykg@opensource.org,Indonesia,229.39.202.92,Rupiah,$18356.90
738,William,Payne,wpaynekh@unesco.org,Afghanistan,226.27.31.19,Afghani,$1111.20
739,Anthony,Nelson,anelsonki@google.co.uk,Indonesia,44.128.98.106,Rupiah,$952.03
740,Ryan,Webb,rwebbkj@yelp.com,China,115.128.45.192,Yuan Renminbi,$6108.56
741,Tammy,Wagner,twagnerkk@smh.com.au,China,137.140.59.39,Yuan Renminbi,$7543.57
742,Russell,Berry,rberrykl@cisco.com,Syria,250.133.31.195,Pound,$24478.20
743,Edward,Stanley,estanleykm@mit.edu,Bhutan,168.148.163.129,Ngultrum,$4299.10
744,Jason,Garza,jgarzakn@123-reg.co.uk,China,29.31.138.223,Yuan Renminbi,$20089.92
745,Douglas,Ford,dfordko@aol.com,Guatemala,45.96.166.60,Quetzal,$10913.28
746,Catherine,Nguyen,cnguyenkp@php.net,Pakistan,87.151.116.170,Rupee,$9842.71
747,Jeremy,Johnson,jjohnsonkq@csmonitor.com,Nigeria,229.161.231.57,Naira,$15505.62
748,Douglas,Gibson,dgibsonkr@disqus.com,Greece,2.181.212.194,Euro,$4168.03
749,Gloria,Crawford,gcrawfordks@omniture.com,Indonesia,29.139.135.34,Rupiah,$17438.29
750,Lillian,Freeman,lfreemankt@engadget.com,China,172.45.185.26,Yuan Renminbi,$1019.91
751,Matthew,Edwards,medwardsku@state.gov,Armenia,144.47.151.251,Dram,$5086.90
752,Christopher,Clark,cclarkkv@google.de,Indonesia,177.158.223.255,Rupiah,$16186.28
753,Denise,Owens,dowenskw@goo.ne.jp,Indonesia,43.211.248.201,Rupiah,$1287.33
754,Roy,Gibson,rgibsonkx@baidu.com,Indonesia,119.166.180.238,Rupiah,$16577.33
755,Johnny,Kennedy,jkennedyky@cyberchimps.com,Indonesia,115.230.186.153,Rupiah,$1340.15
756,Jesse,Griffin,jgriffinkz@imgur.com,Bangladesh,168.128.16.102,Taka,$23716.24
757,Philip,Stewart,pstewartl0@nymag.com,Sweden,26.210.5.55,Krona,$9606.72
758,Aaron,Grant,agrantl1@usa.gov,Poland,84.133.186.159,Zloty,$2745.11
759,Judy,Rivera,jriveral2@t-online.de,Iceland,5.253.121.148,Krona,$21841.92
760,Donna,Morrison,dmorrisonl3@oaic.gov.au,Poland,138.148.117.251,Zloty,$12913.92
761,Antonio,Arnold,aarnoldl4@zdnet.com,China,9.82.160.151,Yuan Renminbi,$14894.89
762,Ashley,Boyd,aboydl5@hibu.com,China,31.187.88.164,Yuan Renminbi,$15422.05
763,Harold,Watson,hwatsonl6@epa.gov,China,230.61.118.55,Yuan Renminbi,$8098.27
764,Karen,Warren,kwarrenl7@blinklist.com,Argentina,40.196.114.107,Peso,$5105.87
765,Kathryn,Kennedy,kkennedyl8@smh.com.au,Thailand,8.251.53.126,Baht,$15288.27
766,Fred,Miller,fmillerl9@furl.net,Philippines,253.42.29.172,Peso,$23340.25
767,Kelly,Washington,kwashingtonla@craigslist.org,France,145.226.221.114,Euro,$11257.64
768,Angela,Martinez,amartinezlb@squarespace.com,Czech Republic,251.156.170.4,Koruna,$21320.05
769,Laura,Fox,lfoxlc@prlog.org,Thailand,24.146.182.236,Baht,$23745.59
770,Michael,Cox,mcoxld@studiopress.com,Slovenia,10.186.228.181,Euro,$24040.69
771,Karen,Warren,kwarrenle@wikispaces.com,Indonesia,157.217.55.19,Rupiah,$16138.58
772,Jean,Hudson,jhudsonlf@51.la,Cyprus,1.43.198.216,Euro,$11822.15
773,Julie,Mills,jmillslg@is.gd,Mexico,83.208.234.75,Peso,$14476.12
774,Shirley,Clark,sclarklh@examiner.com,Poland,27.66.19.148,Zloty,$12258.08
775,John,Harper,jharperli@imageshack.us,Pakistan,144.105.70.212,Rupee,$23687.68
776,Craig,Wells,cwellslj@ca.gov,Ukraine,255.63.50.138,Hryvnia,$9428.59
777,Betty,Webb,bwebblk@macromedia.com,Ivory Coast,95.18.47.35,Franc,$12809.79
778,Amanda,Rice,aricell@epa.gov,France,60.63.229.196,Euro,$3984.37
779,Rachel,Black,rblacklm@networkadvertising.org,Pakistan,66.19.207.67,Rupee,$9337.24
780,Emily,Gray,egrayln@mozilla.com,Portugal,199.236.200.123,Euro,$6034.05
781,Melissa,Knight,mknightlo@t-online.de,China,73.79.61.42,Yuan Renminbi,$1369.60
782,Diana,Snyder,dsnyderlp@spiegel.de,Brazil,8.190.96.171,Real,$15810.15
783,David,Ward,dwardlq@blogger.com,China,253.141.110.132,Yuan Renminbi,$7025.33
784,Tammy,Adams,tadamslr@xing.com,China,104.114.28.35,Yuan Renminbi,$11609.92
785,Amanda,Robertson,arobertsonls@timesonline.co.uk,Indonesia,243.233.255.147,Rupiah,$5030.11
786,Chris,Welch,cwelchlt@toplist.cz,Sudan,65.214.56.218,Pound,$8045.72
787,Karen,Dean,kdeanlu@imdb.com,Indonesia,119.168.35.201,Rupiah,$17305.53
788,Jeffrey,Hudson,jhudsonlv@yolasite.com,Czech Republic,225.243.210.24,Koruna,$1391.83
789,Patricia,Morgan,pmorganlw@cnn.com,Saudi Arabia,8.205.87.195,Rial,$24177.95
790,Jane,Kelly,jkellylx@umn.edu,Sweden,197.169.160.237,Krona,$7836.10
791,Jose,Jacobs,jjacobsly@cafepress.com,China,70.163.227.128,Yuan Renminbi,$14999.31
792,Ronald,Torres,rtorreslz@google.com.hk,Indonesia,103.18.99.183,Rupiah,$19458.02
793,Christine,Jordan,cjordanm0@independent.co.uk,Japan,107.207.117.204,Yen,$16911.37
794,Jerry,Simpson,jsimpsonm1@vistaprint.com,Russia,45.47.225.9,Ruble,$6082.13
795,Andrew,Collins,acollinsm2@nhs.uk,Norway,89.13.129.173,Krone,$8452.85
796,Samuel,Thomas,sthomasm3@blogtalkradio.com,Philippines,169.213.7.231,Peso,$16540.60
797,Rachel,Frazier,rfrazierm4@mapquest.com,Russia,222.120.104.77,Ruble,$13269.10
798,Albert,Davis,adavism5@narod.ru,Portugal,255.164.116.170,Euro,$6623.52
799,Karen,Bell,kbellm6@dyndns.org,France,54.185.84.154,Euro,$3734.86
800,Anthony,Russell,arussellm7@ucla.edu,China,192.14.181.196,Yuan Renminbi,$21672.45
801,Anna,Banks,abanksm8@lycos.com,Brazil,252.20.98.232,Real,$4353.66
802,Clarence,Carroll,ccarrollm9@admin.ch,Poland,46.79.212.32,Zloty,$18818.87
803,Wayne,Hunter,whunterma@wix.com,Sweden,252.122.16.50,Krona,$6919.88
804,Craig,Carroll,ccarrollmb@photobucket.com,Indonesia,197.91.126.224,Rupiah,$2405.47
805,Debra,Wood,dwoodmc@artisteer.com,Uganda,235.111.154.227,Shilling,$306.12
806,Sharon,Hill,shillmd@last.fm,Canada,192.113.125.106,Dollar,$16158.70
807,John,Bryant,jbryantme@github.io,Indonesia,25.199.180.40,Rupiah,$266.27
808,Martin,Elliott,melliottmf@feedburner.com,China,223.33.222.87,Yuan Renminbi,$15117.28
809,Cynthia,Simmons,csimmonsmg@house.gov,Sierra Leone,90.151.219.13,Leone,$1213.37
810,Doris,Armstrong,darmstrongmh@elpais.com,France,29.110.11.223,Euro,$1552.17
811,Sara,Montgomery,smontgomerymi@cyberchimps.com,Italy,201.130.50.76,Euro,$8851.04
812,Daniel,Hunt,dhuntmj@guardian.co.uk,Indonesia,222.23.139.91,Rupiah,$15649.34
813,Mildred,Robinson,mrobinsonmk@deliciousdays.com,Sweden,39.134.113.103,Krona,$11642.84
814,Janice,Reyes,jreyesml@foxnews.com,Sweden,244.52.223.200,Krona,$6351.16
815,Edward,Duncan,eduncanmm@slate.com,Canada,35.103.140.208,Dollar,$10191.06
816,Gloria,Jones,gjonesmn@psu.edu,Indonesia,139.98.229.72,Rupiah,$13531.12
817,Louise,Morgan,lmorganmo@opera.com,Czech Republic,42.220.20.116,Koruna,$9981.27
818,Louis,Campbell,lcampbellmp@paginegialle.it,China,16.132.89.43,Yuan Renminbi,$22062.18
819,Carol,Ryan,cryanmq@skyrock.com,Japan,243.103.186.125,Yen,$3643.51
820,Jason,Bishop,jbishopmr@dell.com,China,5.204.56.221,Yuan Renminbi,$4555.47
821,Samuel,Lynch,slynchms@imdb.com,China,4.221.170.139,Yuan Renminbi,$11594.82
822,Beverly,Robertson,brobertsonmt@woothemes.com,Thailand,87.150.91.167,Baht,$872.82
823,Kathy,Fisher,kfishermu@etsy.com,Philippines,64.165.166.47,Peso,$833.43
824,Shirley,Gonzalez,sgonzalezmv@typepad.com,China,227.114.236.149,Yuan Renminbi,$8320.19
825,Rebecca,Bennett,rbennettmw@newsvine.com,France,59.175.196.123,Euro,$18613.48
826,Joshua,Tucker,jtuckermx@infoseek.co.jp,Indonesia,170.9.147.129,Rupiah,$12992.64
827,Alan,Kelley,akelleymy@artisteer.com,Indonesia,14.239.250.115,Rupiah,$8345.72
828,Nicholas,Bell,nbellmz@reference.com,Latvia,241.88.110.174,Euro,$12623.44
829,Jerry,Lee,jleen0@scientificamerican.com,Philippines,111.89.107.122,Peso,$3465.35
830,Arthur,Reed,areedn1@nifty.com,Vietnam,153.73.54.92,Dong,$13679.84
831,Gary,Simpson,gsimpsonn2@theguardian.com,Colombia,222.236.142.2,Peso,$6158.89
832,Andrea,Adams,aadamsn3@redcross.org,Russia,133.37.114.19,Ruble,$22797.60
833,Clarence,Welch,cwelchn4@wsj.com,China,171.207.53.224,Yuan Renminbi,$15106.59
834,Jacqueline,Gutierrez,jgutierrezn5@furl.net,Philippines,3.228.89.32,Peso,$24077.32
835,Gerald,Wells,gwellsn6@eepurl.com,Germany,142.183.193.253,Euro,$3916.20
836,Michael,Welch,mwelchn7@skype.com,Russia,47.131.68.136,Ruble,$7004.13
837,Roy,Reynolds,rreynoldsn8@sogou.com,Canada,115.83.12.253,Dollar,$14225.34
838,Marie,Long,mlongn9@businessinsider.com,Costa Rica,165.159.191.109,Colon,$19670.34
839,Arthur,Stanley,astanleyna@cocolog-nifty.com,China,10.220.253.105,Yuan Renminbi,$4833.11
840,Denise,Romero,dromeronb@chicagotribune.com,Bolivia,152.106.205.108,Boliviano,$14566.45
841,Linda,Mitchell,lmitchellnc@pbs.org,Indonesia,147.214.11.62,Rupiah,$13865.42
842,Frances,Diaz,fdiaznd@google.com,Brazil,158.25.146.146,Real,$6681.52
843,Johnny,Black,jblackne@alexa.com,China,225.139.184.188,Yuan Renminbi,$16750.07
844,Deborah,Mills,dmillsnf@youtube.com,France,15.122.49.209,Euro,$18469.96
845,Ashley,Baker,abakerng@github.io,China,77.8.59.123,Yuan Renminbi,$15212.07
846,Wanda,Castillo,wcastillonh@army.mil,Brazil,209.181.163.100,Real,$15972.58
847,Edward,Brooks,ebrooksni@europa.eu,China,166.82.26.66,Yuan Renminbi,$23929.67
848,Carolyn,Griffin,cgriffinnj@free.fr,China,221.59.219.174,Yuan Renminbi,$8656.70
849,Andrew,Warren,awarrennk@biblegateway.com,Japan,98.71.80.101,Yen,$12026.89
850,Ronald,Wood,rwoodnl@yolasite.com,Portugal,28.56.105.71,Euro,$11039.69
851,Angela,Peterson,apetersonnm@cornell.edu,China,186.63.90.108,Yuan Renminbi,$13350.59
852,Martin,Williams,mwilliamsnn@bravesites.com,Colombia,93.73.125.71,Peso,$15286.34
853,Paul,Stone,pstoneno@google.com,Indonesia,212.117.212.97,Rupiah,$16561.93
854,Craig,Marshall,cmarshallnp@t-online.de,Brazil,89.84.74.12,Real,$14079.35
855,William,Brown,wbrownnq@blog.com,Kazakhstan,139.133.120.37,Tenge,$18001.71
856,Carl,Gomez,cgomeznr@umich.edu,China,164.240.55.86,Yuan Renminbi,$12635.88
857,Scott,Burton,sburtonns@livejournal.com,China,97.21.254.245,Yuan Renminbi,$14823.68
858,Janice,Walker,jwalkernt@arizona.edu,China,147.108.66.48,Yuan Renminbi,$14118.10
859,Doris,Harrison,dharrisonnu@samsung.com,Croatia,20.80.151.215,Kuna,$7289.85
860,Bonnie,Richardson,brichardsonnv@newyorker.com,Dominican Republic,147.155.139.195,Peso,$18847.90
861,Thomas,Reid,treidnw@delicious.com,South Korea,23.38.227.78,Won,$11259.21
862,Daniel,Phillips,dphillipsnx@homestead.com,Ireland,254.4.203.162,Euro,$21080.20
863,Joshua,Hughes,jhughesny@clickbank.net,Yemen,122.0.197.255,Rial,$9248.79
864,Andrew,Jackson,ajacksonnz@scientificamerican.com,Ukraine,187.58.139.120,Hryvnia,$19334.97
865,Julie,Montgomery,jmontgomeryo0@ucsd.edu,Greece,246.141.161.113,Euro,$82.76
866,Martin,Schmidt,mschmidto1@stanford.edu,Portugal,233.124.148.203,Euro,$17817.32
867,Randy,Holmes,rholmeso2@github.io,Colombia,47.170.51.219,Peso,$13412.58
868,Chris,Spencer,cspencero3@blogs.com,Pakistan,121.190.86.244,Rupee,$4998.72
869,Barbara,Daniels,bdanielso4@ox.ac.uk,China,134.66.75.226,Yuan Renminbi,$12948.76
870,Robert,Gardner,rgardnero5@admin.ch,Armenia,62.39.199.67,Dram,$6010.91
871,Steven,Brown,sbrowno6@statcounter.com,Norway,25.226.221.183,Krone,$696.48
872,Jennifer,Berry,jberryo7@boston.com,Malaysia,213.217.27.238,Ringgit,$6335.93
873,Kevin,Gibson,kgibsono8@163.com,Russia,194.35.155.91,Ruble,$7030.26
874,Laura,Henry,lhenryo9@narod.ru,Russia,168.233.85.95,Ruble,$1046.11
875,Annie,Burton,aburtonoa@mit.edu,Poland,161.211.111.58,Zloty,$13549.55
876,Jean,Cruz,jcruzob@kickstarter.com,Canada,138.52.185.203,Dollar,$23691.53
877,Sharon,Alexander,salexanderoc@nationalgeographic.com,Philippines,229.123.104.159,Peso,$20559.67
878,Billy,Wallace,bwallaceod@amazon.co.uk,New Caledonia,36.180.130.240,Franc,$22456.70
879,Ryan,Griffin,rgriffinoe@mac.com,Macedonia,46.68.251.172,Denar,$10062.07
880,Frank,Hudson,fhudsonof@apple.com,Brazil,179.224.134.234,Real,$19945.12
881,Chris,Murray,cmurrayog@blog.com,Ethiopia,126.96.134.90,Birr,$24511.53
882,Marilyn,Hamilton,mhamiltonoh@lulu.com,Indonesia,74.235.85.67,Rupiah,$21566.70
883,Jonathan,Ramos,jramosoi@bloglines.com,China,88.142.33.150,Yuan Renminbi,$19180.38
884,Melissa,Brooks,mbrooksoj@networkadvertising.org,Honduras,251.16.9.47,Lempira,$10213.16
885,Elizabeth,Shaw,eshawok@amazon.co.uk,Vietnam,6.237.25.166,Dong,$15711.19
886,Carl,Long,clongol@sohu.com,Czech Republic,46.202.247.124,Koruna,$17092.89
887,Cynthia,Allen,callenom@homestead.com,China,180.209.28.47,Yuan Renminbi,$20288.30
888,Judy,Bishop,jbishopon@fastcompany.com,Japan,50.181.124.34,Yen,$2759.23
889,Jessica,Long,jlongoo@wunderground.com,Czech Republic,16.160.151.15,Koruna,$5217.04
890,Scott,Butler,sbutlerop@lycos.com,Indonesia,71.194.253.200,Rupiah,$2663.15
891,Bonnie,Alexander,balexanderoq@nhs.uk,Russia,109.102.11.94,Ruble,$471.92
892,Douglas,Ortiz,dortizor@hubpages.com,United States,22.57.169.29,Dollar,$3808.74
893,Pamela,Parker,pparkeros@mashable.com,Sweden,140.13.129.47,Krona,$503.33
894,Chris,Miller,cmillerot@fc2.com,China,1.222.123.232,Yuan Renminbi,$2900.97
895,Ann,Wood,awoodou@unc.edu,Philippines,38.123.221.12,Peso,$2157.46
896,Beverly,Reyes,breyesov@bloomberg.com,Indonesia,141.229.49.180,Rupiah,$16242.27
897,Gregory,Scott,gscottow@canalblog.com,Poland,134.22.131.89,Zloty,$16260.51
898,Joan,West,jwestox@purevolume.com,South Korea,90.17.53.98,Won,$5534.08
899,Robert,Harris,rharrisoy@elpais.com,Nicaragua,77.15.96.65,Cordoba,$2114.51
900,Donald,Stevens,dstevensoz@yandex.ru,Iran,201.33.233.191,Rial,$19438.83
901,Beverly,Porter,bporterp0@amazon.com,Indonesia,83.31.253.153,Rupiah,$14886.15
902,Mark,Spencer,mspencerp1@studiopress.com,China,19.110.11.194,Yuan Renminbi,$7750.30
903,Fred,Barnes,fbarnesp2@buzzfeed.com,Palestinian Territory,160.74.94.236,Shekel,$7369.20
904,Nancy,Hall,nhallp3@icq.com,Poland,124.69.68.34,Zloty,$3903.10
905,Larry,Mccoy,lmccoyp4@unblog.fr,Russia,206.224.174.117,Ruble,$7852.64
906,Patrick,Jones,pjonesp5@sun.com,Czech Republic,139.60.17.208,Koruna,$13837.68
907,Randy,Weaver,rweaverp6@list-manage.com,Japan,231.183.8.95,Yen,$5456.11
908,Dennis,Turner,dturnerp7@hubpages.com,Bangladesh,71.207.146.231,Taka,$24208.81
909,Barbara,Carroll,bcarrollp8@cloudflare.com,United States,127.10.81.237,Dollar,$9134.45
910,Heather,Myers,hmyersp9@baidu.com,Costa Rica,205.33.69.18,Colon,$17596.82
911,Jeffrey,Young,jyoungpa@theguardian.com,Indonesia,3.24.65.129,Rupiah,$18774.02
912,Aaron,Harvey,aharveypb@behance.net,Russia,40.194.83.184,Ruble,$6084.61
913,Christine,Richardson,crichardsonpc@newsvine.com,France,61.167.47.251,Euro,$3351.36
914,Laura,Miller,lmillerpd@hatena.ne.jp,China,127.91.74.15,Yuan Renminbi,$1362.52
915,Jean,Rodriguez,jrodriguezpe@forbes.com,Japan,116.102.41.149,Yen,$6229.64
916,Samuel,Turner,sturnerpf@cnet.com,Brazil,33.16.23.62,Real,$10222.49
917,Wanda,Stephens,wstephenspg@illinois.edu,China,27.237.182.232,Yuan Renminbi,$512.53
918,Charles,Moore,cmooreph@t-online.de,Philippines,88.95.70.122,Peso,$4340.15
919,Annie,George,ageorgepi@behance.net,Croatia,225.163.11.132,Kuna,$14638.33
920,Todd,Gilbert,tgilbertpj@google.com.br,Estonia,68.110.13.10,Euro,$8078.81
921,Antonio,Brown,abrownpk@hud.gov,Venezuela,187.232.121.113,Bolivar,$2226.83
922,Victor,Hall,vhallpl@imageshack.us,Indonesia,58.169.135.221,Rupiah,$7189.23
923,Andrew,Alvarez,aalvarezpm@latimes.com,Indonesia,88.15.25.7,Rupiah,$20745.27
924,Emily,Harrison,eharrisonpn@independent.co.uk,Dominican Republic,54.186.14.16,Peso,$13650.57
925,Jonathan,Adams,jadamspo@squarespace.com,Sri Lanka,136.35.38.54,Rupee,$3055.75
926,Lisa,Williams,lwilliamspp@army.mil,Brazil,159.171.234.166,Real,$13576.82
927,Steve,Hayes,shayespq@wunderground.com,Brazil,169.173.111.40,Real,$24921.94
928,Diana,Edwards,dedwardspr@youtube.com,Philippines,219.147.252.93,Peso,$23531.03
929,Jimmy,Bradley,jbradleyps@google.com.br,China,237.240.89.187,Yuan Renminbi,$12922.88
930,Daniel,Fisher,dfisherpt@so-net.ne.jp,Czech Republic,80.68.20.67,Koruna,$24489.68
931,Diane,Murphy,dmurphypu@nationalgeographic.com,Thailand,252.0.93.70,Baht,$2424.14
932,Mildred,Hernandez,mhernandezpv@woothemes.com,Thailand,38.29.184.62,Baht,$15445.36
933,Rachel,Hawkins,rhawkinspw@accuweather.com,Ukraine,201.10.252.172,Hryvnia,$18849.92
934,Adam,Owens,aowenspx@tumblr.com,Indonesia,93.158.179.75,Rupiah,$9532.29
935,Victor,Sanders,vsanderspy@foxnews.com,Canada,211.230.9.122,Dollar,$5679.23
936,Ernest,Spencer,espencerpz@dion.ne.jp,Czech Republic,182.219.97.173,Koruna,$22232.45
937,Martin,Lee,mleeq0@google.ru,China,53.149.116.121,Yuan Renminbi,$9301.58
938,Christina,Stone,cstoneq1@hexun.com,Ivory Coast,165.71.137.255,Franc,$7031.88
939,Chris,Banks,cbanksq2@facebook.com,Argentina,65.68.233.2,Peso,$21457.50
940,Elizabeth,Bailey,ebaileyq3@toplist.cz,Venezuela,145.182.145.85,Bolivar,$17099.94
941,Nicole,Riley,nrileyq4@g.co,China,6.70.134.171,Yuan Renminbi,$18203.48
942,Diane,Gardner,dgardnerq5@ebay.co.uk,Brazil,36.151.202.240,Real,$4218.46
943,Gloria,Riley,grileyq6@livejournal.com,Portugal,195.19.164.81,Euro,$4402.55
944,Helen,Kim,hkimq7@home.pl,Portugal,83.3.39.100,Euro,$6715.03
945,Fred,Gray,fgrayq8@tamu.edu,Colombia,183.125.53.34,Peso,$17277.62
946,Ruth,Lawrence,rlawrenceq9@people.com.cn,Poland,177.36.15.250,Zloty,$21966.05
947,Eric,Cooper,ecooperqa@cpanel.net,Indonesia,105.93.132.213,Rupiah,$9399.37
948,Peter,Stanley,pstanleyqb@goo.ne.jp,China,39.111.184.32,Yuan Renminbi,$6030.47
949,Martin,Watkins,mwatkinsqc@stanford.edu,Greece,205.215.52.201,Euro,$17726.27
950,Kevin,Baker,kbakerqd@baidu.com,China,38.212.184.57,Yuan Renminbi,$12687.72
951,Keith,Wagner,kwagnerqe@netscape.com,Brazil,141.241.165.77,Real,$9817.85
952,Theresa,Welch,twelchqf@delicious.com,Indonesia,81.30.154.2,Rupiah,$3775.38
953,Paul,Franklin,pfranklinqg@squidoo.com,Venezuela,83.185.219.244,Bolivar,$7718.52
954,John,Ford,jfordqh@va.gov,Japan,3.7.32.87,Yen,$12345.65
955,Nancy,Carroll,ncarrollqi@shareasale.com,Sweden,195.148.189.173,Krona,$882.81
956,Ruth,Cooper,rcooperqj@geocities.jp,Indonesia,223.167.224.197,Rupiah,$17960.68
957,Lawrence,Gonzales,lgonzalesqk@japanpost.jp,Morocco,113.190.105.45,Dirham,$10489.08
958,Patricia,Ross,prossql@netscape.com,Costa Rica,251.13.20.210,Colon,$14038.17
959,Betty,Hamilton,bhamiltonqm@unc.edu,Colombia,60.54.47.142,Peso,$2483.97
960,Betty,Simpson,bsimpsonqn@google.it,Poland,239.178.15.149,Zloty,$3054.34
961,Steven,Roberts,srobertsqo@rambler.ru,China,7.119.34.203,Yuan Renminbi,$2372.94
962,Lisa,Porter,lporterqp@bizjournals.com,Colombia,93.85.211.96,Peso,$10636.73
963,John,Graham,jgrahamqq@nih.gov,Ukraine,169.190.48.113,Hryvnia,$4276.34
964,Willie,Coleman,wcolemanqr@over-blog.com,Lithuania,244.96.111.70,Litas,$16288.11
965,Phillip,King,pkingqs@mit.edu,Bulgaria,100.152.166.190,Lev,$21177.18
966,Martin,Fowler,mfowlerqt@edublogs.org,Ukraine,161.75.5.15,Hryvnia,$21813.95
967,Adam,Larson,alarsonqu@google.ru,Indonesia,246.215.193.41,Rupiah,$11756.65
968,Emily,Wallace,ewallaceqv@google.nl,South Africa,248.170.59.207,Rand,$4652.11
969,Stephen,Garcia,sgarciaqw@livejournal.com,Poland,104.218.251.167,Zloty,$2476.98
970,Wayne,Cook,wcookqx@tripadvisor.com,China,34.7.84.180,Yuan Renminbi,$2755.62
971,Donald,Perez,dperezqy@amazon.co.uk,Poland,82.5.141.118,Zloty,$11211.96
972,Carol,Wagner,cwagnerqz@go.com,Kazakhstan,243.66.95.109,Tenge,$4556.92
973,Gregory,Duncan,gduncanr0@sciencedirect.com,China,183.133.75.107,Yuan Renminbi,$16840.78
974,Kathryn,Sanchez,ksanchezr1@state.gov,Russia,131.189.6.249,Ruble,$1272.59
975,George,Long,glongr2@opera.com,Portugal,67.246.195.177,Euro,$23217.78
976,James,Dixon,jdixonr3@opera.com,Maldives,71.104.213.220,Rufiyaa,$24385.83
977,Kathryn,Brown,kbrownr4@miitbeian.gov.cn,Philippines,201.240.197.81,Peso,$7065.00
978,Theresa,Campbell,tcampbellr5@themeforest.net,Indonesia,240.27.1.85,Rupiah,$8259.35
979,Donna,Baker,dbakerr6@cbslocal.com,Paraguay,58.109.54.40,Guarani,$16888.57
980,Lillian,Rose,lroser7@1und1.de,Indonesia,40.133.122.11,Rupiah,$5603.87
981,Gary,Carpenter,gcarpenterr8@last.fm,Philippines,30.193.235.17,Peso,$9146.12
982,Albert,Coleman,acolemanr9@skyrock.com,China,65.194.128.51,Yuan Renminbi,$8393.88
983,Donald,Morris,dmorrisra@marketwatch.com,Indonesia,21.240.157.29,Rupiah,$13439.19
984,Elizabeth,Dixon,edixonrb@cbslocal.com,Japan,136.214.182.203,Yen,$7435.22
985,Anthony,Rice,aricerc@theguardian.com,France,45.6.78.172,Euro,$3223.72
986,Rachel,Duncan,rduncanrd@weebly.com,Honduras,197.44.58.246,Lempira,$2381.06
987,Janice,Frazier,jfrazierre@live.com,China,222.12.10.83,Yuan Renminbi,$17709.10
988,Earl,Olson,eolsonrf@wired.com,Indonesia,45.91.38.162,Rupiah,$1791.84
989,Douglas,Morrison,dmorrisonrg@toplist.cz,Finland,147.82.135.190,Euro,$23831.31
990,Margaret,Schmidt,mschmidtrh@msu.edu,United States,242.147.243.116,Dollar,$10650.43
991,Amy,Fields,afieldsri@prweb.com,China,136.105.207.166,Yuan Renminbi,$13983.16
992,Janet,Cole,jcolerj@lycos.com,Malaysia,92.67.192.123,Ringgit,$6662.59
993,Roy,Jenkins,rjenkinsrk@squidoo.com,Poland,208.206.49.200,Zloty,$21525.28
994,Louis,Kelly,lkellyrl@edublogs.org,Sweden,57.145.137.115,Krona,$24950.32
995,Lisa,Baker,lbakerrm@trellian.com,China,71.43.85.70,Yuan Renminbi,$7560.16
996,Brandon,Hicks,bhicksrn@wikipedia.org,China,35.109.136.86,Yuan Renminbi,$16439.93
997,Katherine,White,kwhitero@ovh.net,Russia,55.116.109.174,Ruble,$15607.62
998,Brenda,Dunn,bdunnrp@gmpg.org,Sweden,67.168.40.11,Krona,$15332.47
999,Pamela,Young,pyoungrq@infoseek.co.jp,Poland,89.45.38.251,Zloty,$14177.91
1000,Nancy,Hughes,nhughesrr@gizmodo.com,Vietnam,234.45.85.212,Dong,$12156.35
